﻿ID,expPart,oldResp,newResp,simResp,isPractice,blockIdx,trialIdx,totalTrialIdx,pairID,stimCode,imgStimFull,violation,oldOrNew,oldLureFoil,corrResp,trigVar,jitVar,blocks.thisRepN,blocks.thisTrialN,blocks.thisN,blocks.thisIndex,trials.thisRepN,trials.thisTrialN,trials.thisN,trials.thisIndex,blockID,recog_resp.keys,recog_resp.corr,recog_resp.rt,participant,date,expName,psychopyVersion,frameRate,
-99,Day3_practice_recog,-99,-99,down,1,0,1,1,-99,-99,stimuli/practice/01_Air_freshener.jpg,-99,-99,-99,down,0,30,0,0,0,0,0,0,0,0,A0,left,0,0.9133652000000438,1,2021_Sep_17_1243,simPEL-EEG_ses-3_part-4_label-recog,2021.1.4,59.99376064896282,
-99,Day3_practice_recog,-99,-99,down,1,0,2,2,-99,-99,stimuli/practice/12_brush_comb.jpg,-99,-99,-99,down,0,15,0,0,0,0,0,1,1,1,A0,right,0,1.6602382999999463,1,2021_Sep_17_1243,simPEL-EEG_ses-3_part-4_label-recog,2021.1.4,59.99376064896282,
-99,Day3_practice_recog,-99,-99,down,1,0,3,3,-99,-99,stimuli/practice/15makeupBrush2.jpg,-99,-99,-99,down,0,15,0,0,0,0,0,2,2,2,A0,left,0,0.6791409000006752,1,2021_Sep_17_1243,simPEL-EEG_ses-3_part-4_label-recog,2021.1.4,59.99376064896282,
-99,Day3_practice_recog,-99,-99,down,1,0,4,4,-99,-99,stimuli/practice/10razor.jpg,-99,-99,-99,down,0,27,0,0,0,0,0,3,3,3,A0,right,0,0.7459074999997028,1,2021_Sep_17_1243,simPEL-EEG_ses-3_part-4_label-recog,2021.1.4,59.99376064896282,
-99,Day3_practice_recog,-99,-99,down,1,0,5,5,-99,-99,stimuli/practice/06computer.jpg,-99,-99,-99,down,0,29,0,0,0,0,0,4,4,4,A0,left,0,1.5473558000003322,1,2021_Sep_17_1243,simPEL-EEG_ses-3_part-4_label-recog,2021.1.4,59.99376064896282,
-99,Day3_practice_recog,-99,-99,down,1,0,6,6,-99,-99,stimuli/practice/02_cutboard.jpg,-99,-99,-99,down,0,29,0,0,0,0,0,5,5,5,A0,left,0,0.6930101000007198,1,2021_Sep_17_1243,simPEL-EEG_ses-3_part-4_label-recog,2021.1.4,59.99376064896282,
-99,Day3_practice_recog,-99,-99,down,1,0,7,7,-99,-99,stimuli/practice/14juicer2.jpg,-99,-99,-99,down,0,21,0,0,0,0,0,6,6,6,A0,left,0,0.8437641999998959,1,2021_Sep_17_1243,simPEL-EEG_ses-3_part-4_label-recog,2021.1.4,59.99376064896282,
-99,Day3_practice_recog,-99,-99,down,1,0,8,8,-99,-99,stimuli/practice/08gas_can.jpg,-99,-99,-99,down,0,27,0,0,0,0,0,7,7,7,A0,left,0,0.582695899999635,1,2021_Sep_17_1243,simPEL-EEG_ses-3_part-4_label-recog,2021.1.4,59.99376064896282,
-99,Day3_practice_recog,-99,-99,down,1,0,9,9,-99,-99,stimuli/practice/11cake_birthday.jpg,-99,-99,-99,down,0,24,0,0,0,0,0,8,8,8,A0,right,0,0.5554351000000679,1,2021_Sep_17_1243,simPEL-EEG_ses-3_part-4_label-recog,2021.1.4,59.99376064896282,
-99,Day3_practice_recog,-99,-99,down,1,0,10,10,-99,-99,stimuli/practice/13syringe2.jpg,-99,-99,-99,down,0,18,0,0,0,0,0,9,9,9,A0,left,0,0.6044905999997354,1,2021_Sep_17_1243,simPEL-EEG_ses-3_part-4_label-recog,2021.1.4,59.99376064896282,
-99,Day3_practice_recog,-99,-99,down,1,0,11,11,-99,-99,stimuli/practice/09eagle.jpg,-99,-99,-99,down,0,17,0,0,0,0,0,10,10,10,A0,right,0,0.9738050999994812,1,2021_Sep_17_1243,simPEL-EEG_ses-3_part-4_label-recog,2021.1.4,59.99376064896282,
-99,Day3_practice_recog,-99,-99,down,1,0,12,12,-99,-99,stimuli/practice/07coconut.jpg,-99,-99,-99,down,0,19,0,0,0,0,0,11,11,11,A0,left,0,0.5179595999998128,1,2021_Sep_17_1243,simPEL-EEG_ses-3_part-4_label-recog,2021.1.4,59.99376064896282,
1,Day3_recognition,left,right,,0,1,1,1,foil,29086,stimuli/big/wheel_barrow.jpg,foil,new,,right,90,20,1,0,1,0,0,0,0,0,A1,right,1,2.0056715000000622,1,2021_Sep_17_1243,simPEL-EEG_ses-3_part-4_label-recog,2021.1.4,59.99376064896282,
1,Day3_recognition,left,right,,0,1,2,2,foil,29062,stimuli/big/satellite.jpg,foil,new,,right,90,21,1,0,1,0,0,1,1,1,A1,left,0,0.7406363999998575,1,2021_Sep_17_1243,simPEL-EEG_ses-3_part-4_label-recog,2021.1.4,59.99376064896282,
1,Day3_recognition,left,right,,0,1,3,3,53.0,28043,stimuli/paired/big/safe2.jpg,nv_single,old,,left,71,22,1,0,1,0,0,2,2,2,A1,left,1,0.7945758000005299,1,2021_Sep_17_1243,simPEL-EEG_ses-3_part-4_label-recog,2021.1.4,59.99376064896282,
1,Day3_recognition,left,right,,0,1,4,4,27.0,25028,stimuli/paired/big/gramophone2.jpg,v_single,old,,left,70,30,1,0,1,0,0,3,3,3,A1,left,1,0.7953796000001603,1,2021_Sep_17_1243,simPEL-EEG_ses-3_part-4_label-recog,2021.1.4,59.99376064896282,
1,Day3_recognition,left,right,,0,1,5,5,47.0,26068,stimuli/paired/big/typeWriter2.jpg,nv_single,old,,left,71,27,1,0,1,0,0,4,4,4,A1,left,1,0.566333300000224,1,2021_Sep_17_1243,simPEL-EEG_ses-3_part-4_label-recog,2021.1.4,59.99376064896282,
1,Day3_recognition,left,right,,0,1,6,6,40.0,28056,stimuli/paired/big/telescope1.jpg,nv_single,old,,left,71,17,1,0,1,0,0,5,5,5,A1,left,1,0.5997098999996524,1,2021_Sep_17_1243,simPEL-EEG_ses-3_part-4_label-recog,2021.1.4,59.99376064896282,
1,Day3_recognition,left,right,,0,1,7,7,67.0,-16013,stimuli/paired/small/cd1.jpg,nv_single,old,,left,71,19,1,0,1,0,0,6,6,6,A1,left,1,0.6399068000000625,1,2021_Sep_17_1243,simPEL-EEG_ses-3_part-4_label-recog,2021.1.4,59.99376064896282,
1,Day3_recognition,left,right,,0,1,8,8,34.0,27005,stimuli/paired/big/bikeWheel2.jpg,v_single,old,,left,70,17,1,0,1,0,0,7,7,7,A1,left,1,0.6895877000006294,1,2021_Sep_17_1243,simPEL-EEG_ses-3_part-4_label-recog,2021.1.4,59.99376064896282,
1,Day3_recognition,left,right,,0,1,9,9,48.0,28031,stimuli/paired/big/lamp2.jpg,nv_single,old,,left,71,28,1,0,1,0,0,8,8,8,A1,left,1,0.7555788999998185,1,2021_Sep_17_1243,simPEL-EEG_ses-3_part-4_label-recog,2021.1.4,59.99376064896282,
1,Day3_recognition,left,right,,0,1,10,10,foil,19017,stimuli/small/chip.jpg,foil,new,,right,90,25,1,0,1,0,0,9,9,9,A1,left,0,0.7277861000002304,1,2021_Sep_17_1243,simPEL-EEG_ses-3_part-4_label-recog,2021.1.4,59.99376064896282,
1,Day3_recognition,left,right,,0,1,11,11,foil,19090,stimuli/small/z_bicycle_repair.jpg,foil,new,,right,90,18,1,0,1,0,0,10,10,10,A1,right,1,0.7050202000000354,1,2021_Sep_17_1243,simPEL-EEG_ses-3_part-4_label-recog,2021.1.4,59.99376064896282,
1,Day3_recognition,left,right,,0,1,12,12,35.0,27038,stimuli/paired/big/racket1.jpg,v_single,old,,left,70,23,1,0,1,0,0,11,11,11,A1,left,1,0.670223299999634,1,2021_Sep_17_1243,simPEL-EEG_ses-3_part-4_label-recog,2021.1.4,59.99376064896282,
1,Day3_recognition,left,right,,0,1,13,13,foil,29042,stimuli/big/grill_large.jpg,foil,new,,right,90,23,1,0,1,0,0,12,12,12,A1,right,1,0.8116601000001538,1,2021_Sep_17_1243,simPEL-EEG_ses-3_part-4_label-recog,2021.1.4,59.99376064896282,
1,Day3_recognition,left,right,,0,1,14,14,8.0,-15035,stimuli/paired/small/hooks1.jpg,v_single,old,,left,70,15,1,0,1,0,0,13,13,13,A1,left,1,0.5424345999999787,1,2021_Sep_17_1243,simPEL-EEG_ses-3_part-4_label-recog,2021.1.4,59.99376064896282,
1,Day3_recognition,left,right,,0,1,15,15,foil,19046,stimuli/small/lightbulb.jpg,foil,new,,right,90,28,1,0,1,0,0,14,14,14,A1,right,1,0.6726588999999876,1,2021_Sep_17_1243,simPEL-EEG_ses-3_part-4_label-recog,2021.1.4,59.99376064896282,
1,Day3_recognition,left,right,,0,1,16,16,63.0,-16005,stimuli/paired/small/belt1.jpg,nv_single,old,,left,71,30,1,0,1,0,0,15,15,15,A1,left,1,0.5377020000005359,1,2021_Sep_17_1243,simPEL-EEG_ses-3_part-4_label-recog,2021.1.4,59.99376064896282,
1,Day3_recognition,left,right,,0,1,17,17,foil,19003,stimuli/small/avocado.jpg,foil,new,,right,90,24,1,0,1,0,0,16,16,16,A1,left,0,0.7342816999998831,1,2021_Sep_17_1243,simPEL-EEG_ses-3_part-4_label-recog,2021.1.4,59.99376064896282,
1,Day3_recognition,left,right,,0,1,18,18,foil,19072,stimuli/small/ribbon.jpg,foil,new,,right,90,29,1,0,1,0,0,17,17,17,A1,left,0,0.6878169999999955,1,2021_Sep_17_1243,simPEL-EEG_ses-3_part-4_label-recog,2021.1.4,59.99376064896282,
1,Day3_recognition,left,right,,0,1,19,19,4.0,17063,stimuli/paired/small/toothbrush2.jpg,v_single,old,,left,70,15,1,0,1,0,0,18,18,18,A1,left,1,0.5947881000001871,1,2021_Sep_17_1243,simPEL-EEG_ses-3_part-4_label-recog,2021.1.4,59.99376064896282,
1,Day3_recognition,left,right,,0,1,20,20,foil,29080,stimuli/big/tub_bath.jpg,foil,new,,right,90,22,1,0,1,0,0,19,19,19,A1,left,0,0.6409099000002243,1,2021_Sep_17_1243,simPEL-EEG_ses-3_part-4_label-recog,2021.1.4,59.99376064896282,
1,Day3_recognition,left,right,,0,1,21,21,7.0,-15047,stimuli/paired/small/safetyPin1.jpg,v_single,old,,left,70,21,1,0,1,0,0,20,20,20,A1,left,1,0.5117718000001332,1,2021_Sep_17_1243,simPEL-EEG_ses-3_part-4_label-recog,2021.1.4,59.99376064896282,
1,Day3_recognition,left,right,,0,1,22,22,foil,19021,stimuli/small/clover.jpg,foil,new,,right,90,19,1,0,1,0,0,21,21,21,A1,right,1,0.6479171000000861,1,2021_Sep_17_1243,simPEL-EEG_ses-3_part-4_label-recog,2021.1.4,59.99376064896282,
1,Day3_recognition,left,right,,0,1,23,23,6.0,-15058,stimuli/paired/small/staplerRemover2.jpg,v_single,old,,left,70,29,1,0,1,0,0,22,22,22,A1,left,1,0.5294006000003719,1,2021_Sep_17_1243,simPEL-EEG_ses-3_part-4_label-recog,2021.1.4,59.99376064896282,
1,Day3_recognition,left,right,,0,1,24,24,12.0,17031,stimuli/paired/small/hairBrush2.jpg,v_single,old,,left,70,17,1,0,1,0,0,23,23,23,A1,left,1,0.49898169999960373,1,2021_Sep_17_1243,simPEL-EEG_ses-3_part-4_label-recog,2021.1.4,59.99376064896282,
1,Day3_recognition,left,right,,0,1,25,25,52.0,26059,stimuli/paired/big/tire1.jpg,nv_single,old,,left,71,30,1,0,1,0,0,24,24,24,A1,left,1,0.6197429000003467,1,2021_Sep_17_1243,simPEL-EEG_ses-3_part-4_label-recog,2021.1.4,59.99376064896282,
1,Day3_recognition,left,right,,0,1,26,26,57.0,18024,stimuli/paired/small/glassBottle1.jpg,nv_single,old,,left,71,18,1,0,1,0,0,25,25,25,A1,left,1,0.6126191999992443,1,2021_Sep_17_1243,simPEL-EEG_ses-3_part-4_label-recog,2021.1.4,59.99376064896282,
1,Day3_recognition,left,right,,0,1,27,27,54.0,26023,stimuli/paired/big/fireExtinguisher1.jpg,nv_single,old,,left,71,22,1,0,1,0,0,26,26,26,A1,right,0,0.9307941999995819,1,2021_Sep_17_1243,simPEL-EEG_ses-3_part-4_label-recog,2021.1.4,59.99376064896282,
1,Day3_recognition,left,right,,0,1,28,28,23.0,27061,stimuli/paired/big/toaster2.jpg,v_single,old,,left,70,22,1,0,1,0,0,27,27,27,A1,left,1,0.5689283000001524,1,2021_Sep_17_1243,simPEL-EEG_ses-3_part-4_label-recog,2021.1.4,59.99376064896282,
1,Day3_recognition,left,right,,0,1,29,29,32.0,25049,stimuli/paired/big/sewingMachine1.jpg,v_single,old,,left,70,19,1,0,1,0,0,28,28,28,A1,right,0,1.3391787000000477,1,2021_Sep_17_1243,simPEL-EEG_ses-3_part-4_label-recog,2021.1.4,59.99376064896282,
1,Day3_recognition,left,right,,0,1,30,30,46.0,28012,stimuli/paired/big/broom1.jpg,nv_single,old,,left,71,20,1,0,1,0,0,29,29,29,A1,left,1,1.112703099999635,1,2021_Sep_17_1243,simPEL-EEG_ses-3_part-4_label-recog,2021.1.4,59.99376064896282,
1,Day3_recognition,left,right,,0,1,31,31,70.0,-16069,stimuli/paired/small/watch1.jpg,nv_single,old,,left,71,19,1,0,1,0,0,30,30,30,A1,right,0,0.6969038999995973,1,2021_Sep_17_1243,simPEL-EEG_ses-3_part-4_label-recog,2021.1.4,59.99376064896282,
1,Day3_recognition,left,right,,0,1,32,32,foil,29052,stimuli/big/ladder.jpg,foil,new,,right,90,24,1,0,1,0,0,31,31,31,A1,right,1,0.8297317000005933,1,2021_Sep_17_1243,simPEL-EEG_ses-3_part-4_label-recog,2021.1.4,59.99376064896282,
1,Day3_recognition,left,right,,0,1,33,33,16.0,17022,stimuli/paired/small/garlicpress1.jpg,v_single,old,,left,70,17,1,0,1,0,0,32,32,32,A1,left,1,0.7351211999994121,1,2021_Sep_17_1243,simPEL-EEG_ses-3_part-4_label-recog,2021.1.4,59.99376064896282,
1,Day3_recognition,left,right,,0,1,34,34,foil,29050,stimuli/big/instrument_saxophone.jpg,foil,new,,right,90,29,1,0,1,0,0,33,33,33,A1,left,0,0.6567203000004156,1,2021_Sep_17_1243,simPEL-EEG_ses-3_part-4_label-recog,2021.1.4,59.99376064896282,
1,Day3_recognition,left,right,,0,1,35,35,20.0,27066,stimuli/paired/big/trafficCone1.jpg,v_single,old,,left,70,19,1,0,1,0,0,34,34,34,A1,left,1,1.0967901000003621,1,2021_Sep_17_1243,simPEL-EEG_ses-3_part-4_label-recog,2021.1.4,59.99376064896282,
1,Day3_recognition,left,right,,0,1,36,36,37.0,26071,stimuli/paired/big/weedwhacker1.jpg,nv_single,old,,left,71,23,1,0,1,0,0,35,35,35,A1,right,0,1.102275400000508,1,2021_Sep_17_1243,simPEL-EEG_ses-3_part-4_label-recog,2021.1.4,59.99376064896282,
1,Day3_recognition,left,right,,0,1,37,37,foil,19055,stimuli/small/ornament.jpg,foil,new,,right,90,26,1,0,1,0,0,36,36,36,A1,left,0,0.610045500000524,1,2021_Sep_17_1243,simPEL-EEG_ses-3_part-4_label-recog,2021.1.4,59.99376064896282,
1,Day3_recognition,left,right,,0,1,38,38,3.0,17053,stimuli/paired/small/showerHead2.jpg,v_single,old,,left,70,15,1,0,1,0,0,37,37,37,A1,left,1,0.7086663000000044,1,2021_Sep_17_1243,simPEL-EEG_ses-3_part-4_label-recog,2021.1.4,59.99376064896282,
1,Day3_recognition,left,right,,0,1,39,39,foil,19059,stimuli/small/pear.jpg,foil,new,,right,90,22,1,0,1,0,0,38,38,38,A1,left,0,1.2830159000004642,1,2021_Sep_17_1243,simPEL-EEG_ses-3_part-4_label-recog,2021.1.4,59.99376064896282,
1,Day3_recognition,left,right,,0,1,40,40,65.0,18037,stimuli/paired/small/knife2.jpg,nv_single,old,,left,71,24,1,0,1,0,0,39,39,39,A1,left,1,0.6717878999997993,1,2021_Sep_17_1243,simPEL-EEG_ses-3_part-4_label-recog,2021.1.4,59.99376064896282,
1,Day3_recognition,left,right,,0,1,41,41,foil,19027,stimuli/small/crayon.jpg,foil,new,,right,90,20,1,0,1,0,0,40,40,40,A1,left,0,0.6152596000001722,1,2021_Sep_17_1243,simPEL-EEG_ses-3_part-4_label-recog,2021.1.4,59.99376064896282,
1,Day3_recognition,left,right,,0,1,42,42,41.0,28052,stimuli/paired/big/suitcase1.jpg,nv_single,old,,left,71,27,1,0,1,0,0,41,41,41,A1,left,1,0.6500985000002402,1,2021_Sep_17_1243,simPEL-EEG_ses-3_part-4_label-recog,2021.1.4,59.99376064896282,
1,Day3_recognition,left,right,,0,1,43,43,56.0,-16011,stimuli/paired/small/camera1.jpg,nv_single,old,,left,71,26,1,0,1,0,0,42,42,42,A1,left,1,0.6617231000000174,1,2021_Sep_17_1243,simPEL-EEG_ses-3_part-4_label-recog,2021.1.4,59.99376064896282,
1,Day3_recognition,left,right,,0,1,44,44,foil,19052,stimuli/small/needle.jpg,foil,new,,right,90,28,1,0,1,0,0,43,43,43,A1,left,0,0.7357393000002048,1,2021_Sep_17_1243,simPEL-EEG_ses-3_part-4_label-recog,2021.1.4,59.99376064896282,
1,Day3_recognition,left,right,,0,1,45,45,25.0,27009,stimuli/paired/big/briefcase2.jpg,v_single,old,,left,70,20,1,0,1,0,0,44,44,44,A1,right,0,1.2393489000005502,1,2021_Sep_17_1243,simPEL-EEG_ses-3_part-4_label-recog,2021.1.4,59.99376064896282,
1,Day3_recognition,left,right,,0,1,46,46,foil,29027,stimuli/big/chair_arm.jpg,foil,new,,right,90,23,1,0,1,0,0,45,45,45,A1,right,1,0.7330006000001958,1,2021_Sep_17_1243,simPEL-EEG_ses-3_part-4_label-recog,2021.1.4,59.99376064896282,
1,Day3_recognition,left,right,,0,1,47,47,foil,29054,stimuli/big/microwave.jpg,foil,new,,right,90,17,1,0,1,0,0,46,46,46,A1,right,1,1.3663942000002862,1,2021_Sep_17_1243,simPEL-EEG_ses-3_part-4_label-recog,2021.1.4,59.99376064896282,
1,Day3_recognition,left,right,,0,1,48,48,2.0,-15056,stimuli/paired/small/spade2.jpg,v_single,old,,left,70,17,1,0,1,0,0,47,47,47,A1,left,1,0.8799698000002536,1,2021_Sep_17_1243,simPEL-EEG_ses-3_part-4_label-recog,2021.1.4,59.99376064896282,
1,Day3_recognition,left,right,,0,1,49,49,19.0,25029,stimuli/paired/big/hairdryer1.jpg,v_single,old,,left,70,27,1,0,1,0,0,48,48,48,A1,left,1,0.9147268999995504,1,2021_Sep_17_1243,simPEL-EEG_ses-3_part-4_label-recog,2021.1.4,59.99376064896282,
1,Day3_recognition,left,right,,0,1,50,50,10.0,-15046,stimuli/paired/small/plug2.jpg,v_single,old,,left,70,20,1,0,1,0,0,49,49,49,A1,left,1,0.6581600999998045,1,2021_Sep_17_1243,simPEL-EEG_ses-3_part-4_label-recog,2021.1.4,59.99376064896282,
1,Day3_recognition,left,right,,0,1,51,51,58.0,-16041,stimuli/paired/small/perfumeBottle1.jpg,nv_single,old,,left,71,20,1,0,1,0,0,50,50,50,A1,left,1,0.8496397999997498,1,2021_Sep_17_1243,simPEL-EEG_ses-3_part-4_label-recog,2021.1.4,59.99376064896282,
1,Day3_recognition,left,right,,0,1,52,52,68.0,18010,stimuli/paired/small/calculator1.jpg,nv_single,old,,left,71,18,1,0,1,0,0,51,51,51,A1,left,1,1.27489659999992,1,2021_Sep_17_1243,simPEL-EEG_ses-3_part-4_label-recog,2021.1.4,59.99376064896282,
1,Day3_recognition,left,right,,0,1,53,53,51.0,28015,stimuli/paired/big/carriage2.jpg,nv_single,old,,left,71,18,1,0,1,0,0,52,52,52,A1,left,1,1.8194643999995606,1,2021_Sep_17_1243,simPEL-EEG_ses-3_part-4_label-recog,2021.1.4,59.99376064896282,
1,Day3_recognition,left,right,,0,1,54,54,13.0,-15050,stimuli/paired/small/scissors2.jpg,v_single,old,,left,70,22,1,0,1,0,0,53,53,53,A1,right,0,0.8815779000005932,1,2021_Sep_17_1243,simPEL-EEG_ses-3_part-4_label-recog,2021.1.4,59.99376064896282,
1,Day3_recognition,left,right,,0,2,1,55,foil,19069,stimuli/small/pretzel.jpg,foil,new,,right,90,17,2,0,2,0,0,0,0,0,A2,left,0,0.9484511999999086,1,2021_Sep_17_1243,simPEL-EEG_ses-3_part-4_label-recog,2021.1.4,59.99376064896282,
1,Day3_recognition,left,right,,0,2,2,56,69.0,18034,stimuli/paired/small/harmonica1.jpg,nv_single,old,,left,71,27,2,0,2,0,0,1,1,1,A2,left,1,0.6233996000000843,1,2021_Sep_17_1243,simPEL-EEG_ses-3_part-4_label-recog,2021.1.4,59.99376064896282,
1,Day3_recognition,left,right,,0,2,3,57,15.0,17001,stimuli/paired/small/babyBottle2.jpg,v_single,old,,left,70,26,2,0,2,0,0,2,2,2,A2,left,1,1.0988532000001214,1,2021_Sep_17_1243,simPEL-EEG_ses-3_part-4_label-recog,2021.1.4,59.99376064896282,
1,Day3_recognition,left,right,,0,2,4,58,60.0,-16066,stimuli/paired/small/toyTruck2.jpg,nv_single,old,,left,71,24,2,0,2,0,0,3,3,3,A2,right,0,0.6556081999997332,1,2021_Sep_17_1243,simPEL-EEG_ses-3_part-4_label-recog,2021.1.4,59.99376064896282,
1,Day3_recognition,left,right,,0,2,5,59,18.0,17052,stimuli/paired/small/seatbelt1.jpg,v_single,old,,left,70,25,2,0,2,0,0,4,4,4,A2,left,1,0.6997376999997869,1,2021_Sep_17_1243,simPEL-EEG_ses-3_part-4_label-recog,2021.1.4,59.99376064896282,
1,Day3_recognition,left,right,,0,2,6,60,11.0,17019,stimuli/paired/small/electricRazor2.jpg,v_single,old,,left,70,16,2,0,2,0,0,5,5,5,A2,left,1,0.6882779000006849,1,2021_Sep_17_1243,simPEL-EEG_ses-3_part-4_label-recog,2021.1.4,59.99376064896282,
1,Day3_recognition,left,right,,0,2,7,61,foil,29061,stimuli/big/saddle_horse.jpg,foil,new,,right,90,25,2,0,2,0,0,6,6,6,A2,left,0,0.5941748000004736,1,2021_Sep_17_1243,simPEL-EEG_ses-3_part-4_label-recog,2021.1.4,59.99376064896282,
1,Day3_recognition,left,right,,0,2,8,62,71.0,-16068,stimuli/paired/small/walkieTalkie2.jpg,nv_single,old,,left,71,24,2,0,2,0,0,7,7,7,A2,left,1,0.6230800999992425,1,2021_Sep_17_1243,simPEL-EEG_ses-3_part-4_label-recog,2021.1.4,59.99376064896282,
1,Day3_recognition,left,right,,0,2,9,63,49.0,26014,stimuli/paired/big/candelabra2.jpg,nv_single,old,,left,71,29,2,0,2,0,0,8,8,8,A2,left,1,0.9385707999999795,1,2021_Sep_17_1243,simPEL-EEG_ses-3_part-4_label-recog,2021.1.4,59.99376064896282,
1,Day3_recognition,left,right,,0,2,10,64,43.0,28042,stimuli/paired/big/rollerSkate1.jpg,nv_single,old,,left,71,20,2,0,2,0,0,9,9,9,A2,left,1,0.6320047999997769,1,2021_Sep_17_1243,simPEL-EEG_ses-3_part-4_label-recog,2021.1.4,59.99376064896282,
1,Day3_recognition,left,right,,0,2,11,65,foil,29055,stimuli/big/mower_lawn.jpg,foil,new,,right,90,16,2,0,2,0,0,10,10,10,A2,left,0,0.8181116999994629,1,2021_Sep_17_1243,simPEL-EEG_ses-3_part-4_label-recog,2021.1.4,59.99376064896282,
1,Day3_recognition,left,right,,0,2,12,66,38.0,26019,stimuli/paired/big/espressoMachine1.jpg,nv_single,old,,left,71,24,2,0,2,0,0,11,11,11,A2,left,1,0.6630359000000681,1,2021_Sep_17_1243,simPEL-EEG_ses-3_part-4_label-recog,2021.1.4,59.99376064896282,
1,Day3_recognition,left,right,,0,2,13,67,72.0,18030,stimuli/paired/small/gravyBoat1.jpg,nv_single,old,,left,71,29,2,0,2,0,0,12,12,12,A2,left,1,0.8885187999994741,1,2021_Sep_17_1243,simPEL-EEG_ses-3_part-4_label-recog,2021.1.4,59.99376064896282,
1,Day3_recognition,left,right,,0,2,14,68,1.0,17027,stimuli/paired/small/grater2.jpg,v_single,old,,left,70,20,2,0,2,0,0,13,13,13,A2,left,1,0.6402656000000206,1,2021_Sep_17_1243,simPEL-EEG_ses-3_part-4_label-recog,2021.1.4,59.99376064896282,
1,Day3_recognition,left,right,,0,2,15,69,foil,19047,stimuli/small/lipstick.jpg,foil,new,,right,90,17,2,0,2,0,0,14,14,14,A2,left,0,0.7375831999997899,1,2021_Sep_17_1243,simPEL-EEG_ses-3_part-4_label-recog,2021.1.4,59.99376064896282,
1,Day3_recognition,left,right,,0,2,16,70,22.0,27045,stimuli/paired/big/saw2.jpg,v_single,old,,left,70,30,2,0,2,0,0,15,15,15,A2,left,1,0.7623346000000311,1,2021_Sep_17_1243,simPEL-EEG_ses-3_part-4_label-recog,2021.1.4,59.99376064896282,
1,Day3_recognition,left,right,,0,2,17,71,33.0,25054,stimuli/paired/big/tableSaw2.jpg,v_single,old,,left,70,27,2,0,2,0,0,16,16,16,A2,left,1,0.7412981999996191,1,2021_Sep_17_1243,simPEL-EEG_ses-3_part-4_label-recog,2021.1.4,59.99376064896282,
1,Day3_recognition,left,right,,0,2,18,72,foil,19026,stimuli/small/cookie_cutter.jpg,foil,new,,right,90,25,2,0,2,0,0,17,17,17,A2,right,1,0.6654261000003316,1,2021_Sep_17_1243,simPEL-EEG_ses-3_part-4_label-recog,2021.1.4,59.99376064896282,
1,Day3_recognition,left,right,,0,2,19,73,29.0,25003,stimuli/paired/big/bikePump1.jpg,v_single,old,,left,70,26,2,0,2,0,0,18,18,18,A2,left,1,0.8390200999992885,1,2021_Sep_17_1243,simPEL-EEG_ses-3_part-4_label-recog,2021.1.4,59.99376064896282,
1,Day3_recognition,left,right,,0,2,20,74,foil,19006,stimuli/small/bandaid.jpg,foil,new,,right,90,25,2,0,2,0,0,19,19,19,A2,left,0,0.5690799999993033,1,2021_Sep_17_1243,simPEL-EEG_ses-3_part-4_label-recog,2021.1.4,59.99376064896282,
1,Day3_recognition,left,right,,0,2,21,75,62.0,18018,stimuli/paired/small/drawingCompass1.jpg,nv_single,old,,left,71,29,2,0,2,0,0,20,20,20,A2,left,1,1.4105456999996022,1,2021_Sep_17_1243,simPEL-EEG_ses-3_part-4_label-recog,2021.1.4,59.99376064896282,
1,Day3_recognition,left,right,,0,2,22,76,66.0,18072,stimuli/paired/small/wrench1.jpg,nv_single,old,,left,71,24,2,0,2,0,0,21,21,21,A2,right,0,0.8315346999997928,1,2021_Sep_17_1243,simPEL-EEG_ses-3_part-4_label-recog,2021.1.4,59.99376064896282,
1,Day3_recognition,left,right,,0,2,23,77,39.0,26040,stimuli/paired/big/radio2.jpg,nv_single,old,,left,71,25,2,0,2,0,0,22,22,22,A2,right,0,0.8755469999996421,1,2021_Sep_17_1243,simPEL-EEG_ses-3_part-4_label-recog,2021.1.4,59.99376064896282,
1,Day3_recognition,left,right,,0,2,24,78,21.0,27048,stimuli/paired/big/scale1.jpg,v_single,old,,left,70,24,2,0,2,0,0,23,23,23,A2,left,1,0.6895921000004819,1,2021_Sep_17_1243,simPEL-EEG_ses-3_part-4_label-recog,2021.1.4,59.99376064896282,
1,Day3_recognition,left,right,,0,2,25,79,foil,29022,stimuli/big/cannon.jpg,foil,new,,right,90,19,2,0,2,0,0,24,24,24,A2,right,1,0.8567723999994996,1,2021_Sep_17_1243,simPEL-EEG_ses-3_part-4_label-recog,2021.1.4,59.99376064896282,
1,Day3_recognition,left,right,,0,2,26,80,44.0,26034,stimuli/paired/big/laundrybasket2.jpg,nv_single,old,,left,71,17,2,0,2,0,0,25,25,25,A2,left,1,0.8663103999997475,1,2021_Sep_17_1243,simPEL-EEG_ses-3_part-4_label-recog,2021.1.4,59.99376064896282,
1,Day3_recognition,left,right,,0,2,27,81,61.0,18062,stimuli/paired/small/tape1.jpg,nv_single,old,,left,71,27,2,0,2,0,0,26,26,26,A2,left,1,0.7889999000008174,1,2021_Sep_17_1243,simPEL-EEG_ses-3_part-4_label-recog,2021.1.4,59.99376064896282,
1,Day3_recognition,left,right,,0,2,28,82,31.0,25001,stimuli/paired/big/abacus1.jpg,v_single,old,,left,70,30,2,0,2,0,0,27,27,27,A2,left,1,0.7337649000000965,1,2021_Sep_17_1243,simPEL-EEG_ses-3_part-4_label-recog,2021.1.4,59.99376064896282,
1,Day3_recognition,left,right,,0,2,29,83,foil,29006,stimuli/big/bench_park.jpg,foil,new,,right,90,15,2,0,2,0,0,28,28,28,A2,left,0,0.7048609000003125,1,2021_Sep_17_1243,simPEL-EEG_ses-3_part-4_label-recog,2021.1.4,59.99376064896282,
1,Day3_recognition,left,right,,0,2,30,84,foil,29084,stimuli/big/walker.jpg,foil,new,,right,90,30,2,0,2,0,0,29,29,29,A2,left,0,0.7215581999998903,1,2021_Sep_17_1243,simPEL-EEG_ses-3_part-4_label-recog,2021.1.4,59.99376064896282,
1,Day3_recognition,left,right,,0,2,31,85,foil,29087,stimuli/big/z_boat_house.jpg,foil,new,,right,90,16,2,0,2,0,0,30,30,30,A2,right,1,0.6996536000006017,1,2021_Sep_17_1243,simPEL-EEG_ses-3_part-4_label-recog,2021.1.4,59.99376064896282,
1,Day3_recognition,left,right,,0,2,32,86,14.0,-15026,stimuli/paired/small/glove2.jpg,v_single,old,,left,70,18,2,0,2,0,0,31,31,31,A2,left,1,0.5405691999994815,1,2021_Sep_17_1243,simPEL-EEG_ses-3_part-4_label-recog,2021.1.4,59.99376064896282,
1,Day3_recognition,left,right,,0,2,33,87,foil,19018,stimuli/small/clip.jpg,foil,new,,right,90,20,2,0,2,0,0,32,32,32,A2,left,0,0.6120880999997098,1,2021_Sep_17_1243,simPEL-EEG_ses-3_part-4_label-recog,2021.1.4,59.99376064896282,
1,Day3_recognition,left,right,,0,2,34,88,foil,29033,stimuli/big/dishwasher.jpg,foil,new,,right,90,16,2,0,2,0,0,33,33,33,A2,left,0,0.7823367000000871,1,2021_Sep_17_1243,simPEL-EEG_ses-3_part-4_label-recog,2021.1.4,59.99376064896282,
1,Day3_recognition,left,right,,0,2,35,89,55.0,-16059,stimuli/paired/small/tack1.jpg,nv_single,old,,left,71,23,2,0,2,0,0,34,34,34,A2,left,1,0.6117039999999179,1,2021_Sep_17_1243,simPEL-EEG_ses-3_part-4_label-recog,2021.1.4,59.99376064896282,
1,Day3_recognition,left,right,,0,2,36,90,9.0,17004,stimuli/paired/small/bell1.jpg,v_single,old,,left,70,24,2,0,2,0,0,35,35,35,A2,right,0,1.0085636000003433,1,2021_Sep_17_1243,simPEL-EEG_ses-3_part-4_label-recog,2021.1.4,59.99376064896282,
1,Day3_recognition,left,right,,0,2,37,91,45.0,26064,stimuli/paired/big/toolbox2.jpg,nv_single,old,,left,71,16,2,0,2,0,0,36,36,36,A2,left,1,1.5627210000002378,1,2021_Sep_17_1243,simPEL-EEG_ses-3_part-4_label-recog,2021.1.4,59.99376064896282,
1,Day3_recognition,left,right,,0,2,38,92,5.0,-15008,stimuli/paired/small/binoculars2.jpg,v_single,old,,left,70,16,2,0,2,0,0,37,37,37,A2,left,1,0.7889104999994743,1,2021_Sep_17_1243,simPEL-EEG_ses-3_part-4_label-recog,2021.1.4,59.99376064896282,
1,Day3_recognition,left,right,,0,2,39,93,foil,19005,stimuli/small/ball_base.jpg,foil,new,,right,90,28,2,0,2,0,0,38,38,38,A2,left,0,0.6712793999995483,1,2021_Sep_17_1243,simPEL-EEG_ses-3_part-4_label-recog,2021.1.4,59.99376064896282,
1,Day3_recognition,left,right,,0,2,40,94,42.0,28058,stimuli/paired/big/tent1.jpg,nv_single,old,,left,71,17,2,0,2,0,0,39,39,39,A2,left,1,0.696660200000224,1,2021_Sep_17_1243,simPEL-EEG_ses-3_part-4_label-recog,2021.1.4,59.99376064896282,
1,Day3_recognition,left,right,,0,2,41,95,foil,19050,stimuli/small/medal.jpg,foil,new,,right,90,30,2,0,2,0,0,40,40,40,A2,left,0,0.6174012000001312,1,2021_Sep_17_1243,simPEL-EEG_ses-3_part-4_label-recog,2021.1.4,59.99376064896282,
1,Day3_recognition,left,right,,0,2,42,96,foil,19087,stimuli/small/tool_divider.jpg,foil,new,,right,90,24,2,0,2,0,0,41,41,41,A2,left,0,0.9983597000000373,1,2021_Sep_17_1243,simPEL-EEG_ses-3_part-4_label-recog,2021.1.4,59.99376064896282,
1,Day3_recognition,left,right,,0,2,43,97,26.0,25070,stimuli/paired/big/wateringCan2.jpg,v_single,old,,left,70,16,2,0,2,0,0,42,42,42,A2,right,0,0.7925564999995913,1,2021_Sep_17_1243,simPEL-EEG_ses-3_part-4_label-recog,2021.1.4,59.99376064896282,
1,Day3_recognition,left,right,,0,2,44,98,30.0,25026,stimuli/paired/big/gasPump2.jpg,v_single,old,,left,70,24,2,0,2,0,0,43,43,43,A2,left,1,0.9653650000000198,1,2021_Sep_17_1243,simPEL-EEG_ses-3_part-4_label-recog,2021.1.4,59.99376064896282,
1,Day3_recognition,left,right,,0,2,45,99,36.0,25007,stimuli/paired/big/blender1.jpg,v_single,old,,left,70,23,2,0,2,0,0,44,44,44,A2,right,0,0.7890911000004053,1,2021_Sep_17_1243,simPEL-EEG_ses-3_part-4_label-recog,2021.1.4,59.99376064896282,
1,Day3_recognition,left,right,,0,2,46,100,24.0,25018,stimuli/paired/big/colander2.jpg,v_single,old,,left,70,20,2,0,2,0,0,45,45,45,A2,right,0,1.6102691999994931,1,2021_Sep_17_1243,simPEL-EEG_ses-3_part-4_label-recog,2021.1.4,59.99376064896282,
1,Day3_recognition,left,right,,0,2,47,101,foil,29051,stimuli/big/jug_water.jpg,foil,new,,right,90,26,2,0,2,0,0,46,46,46,A2,right,1,0.7418877999998585,1,2021_Sep_17_1243,simPEL-EEG_ses-3_part-4_label-recog,2021.1.4,59.99376064896282,
1,Day3_recognition,left,right,,0,2,48,102,59.0,-16043,stimuli/paired/small/pliers1.jpg,nv_single,old,,left,71,21,2,0,2,0,0,47,47,47,A2,left,1,0.8686530000004495,1,2021_Sep_17_1243,simPEL-EEG_ses-3_part-4_label-recog,2021.1.4,59.99376064896282,
1,Day3_recognition,left,right,,0,2,49,103,64.0,18039,stimuli/paired/small/lighter2.jpg,nv_single,old,,left,71,21,2,0,2,0,0,48,48,48,A2,left,1,0.6435132000005979,1,2021_Sep_17_1243,simPEL-EEG_ses-3_part-4_label-recog,2021.1.4,59.99376064896282,
1,Day3_recognition,left,right,,0,2,50,104,28.0,27021,stimuli/paired/big/fancyutensils2.jpg,v_single,old,,left,70,22,2,0,2,0,0,49,49,49,A2,left,1,0.8659301000006963,1,2021_Sep_17_1243,simPEL-EEG_ses-3_part-4_label-recog,2021.1.4,59.99376064896282,
1,Day3_recognition,left,right,,0,2,51,105,17.0,17015,stimuli/paired/small/dice2.jpg,v_single,old,,left,70,17,2,0,2,0,0,50,50,50,A2,left,1,0.5554425000000265,1,2021_Sep_17_1243,simPEL-EEG_ses-3_part-4_label-recog,2021.1.4,59.99376064896282,
1,Day3_recognition,left,right,,0,2,52,106,50.0,28035,stimuli/paired/big/plunger2.jpg,nv_single,old,,left,71,29,2,0,2,0,0,51,51,51,A2,left,1,0.6208475000003091,1,2021_Sep_17_1243,simPEL-EEG_ses-3_part-4_label-recog,2021.1.4,59.99376064896282,
1,Day3_recognition,left,right,,0,2,53,107,foil,29059,stimuli/big/playpen.jpg,foil,new,,right,90,25,2,0,2,0,0,52,52,52,A2,left,0,0.7130415000001449,1,2021_Sep_17_1243,simPEL-EEG_ses-3_part-4_label-recog,2021.1.4,59.99376064896282,
1,Day3_recognition,left,right,,0,2,54,108,foil,29049,stimuli/big/house_dog.jpg,foil,new,,right,90,25,2,0,2,0,0,53,53,53,A2,left,0,0.6930820000006861,1,2021_Sep_17_1243,simPEL-EEG_ses-3_part-4_label-recog,2021.1.4,59.99376064896282,
