﻿ID,expPart,oldResp,newResp,simResp,isPractice,blockIdx,trialIdx,totalTrialIdx,pairID,stimCode,imgStimFull,violation,oldOrNew,oldLureFoil,corrResp,trigVar,jitVar,blocks.thisRepN,blocks.thisTrialN,blocks.thisN,blocks.thisIndex,trials.thisRepN,trials.thisTrialN,trials.thisN,trials.thisIndex,blockID,recog_resp.keys,recog_resp.corr,recog_resp.rt,participant,date,expName,psychopyVersion,frameRate,
-99,Day3_practice_recog,-99,-99,down,1,0,1,1,-99,-99,stimuli/practice/01_Air_freshener.jpg,-99,-99,-99,down,0,30,0,0,0,0,0,0,0,0,A0,None,0,,2,2021_Oct_14_1253,simPEL-EEG_ses-3_part-4_label-recog,2021.1.4,59.996172201098204,
-99,Day3_practice_recog,-99,-99,down,1,0,2,2,-99,-99,stimuli/practice/12_brush_comb.jpg,-99,-99,-99,down,0,15,0,0,0,0,0,1,1,1,A0,left,0,1.0735456999391317,2,2021_Oct_14_1253,simPEL-EEG_ses-3_part-4_label-recog,2021.1.4,59.996172201098204,
-99,Day3_practice_recog,-99,-99,down,1,0,3,3,-99,-99,stimuli/practice/15makeupBrush2.jpg,-99,-99,-99,down,0,15,0,0,0,0,0,2,2,2,A0,left,0,0.9881976000033319,2,2021_Oct_14_1253,simPEL-EEG_ses-3_part-4_label-recog,2021.1.4,59.996172201098204,
-99,Day3_practice_recog,-99,-99,down,1,0,4,4,-99,-99,stimuli/practice/10razor.jpg,-99,-99,-99,down,0,27,0,0,0,0,0,3,3,3,A0,left,0,1.0552580000367016,2,2021_Oct_14_1253,simPEL-EEG_ses-3_part-4_label-recog,2021.1.4,59.996172201098204,
-99,Day3_practice_recog,-99,-99,down,1,0,5,5,-99,-99,stimuli/practice/06computer.jpg,-99,-99,-99,down,0,29,0,0,0,0,0,4,4,4,A0,right,0,0.8805424000602216,2,2021_Oct_14_1253,simPEL-EEG_ses-3_part-4_label-recog,2021.1.4,59.996172201098204,
-99,Day3_practice_recog,-99,-99,down,1,0,6,6,-99,-99,stimuli/practice/02_cutboard.jpg,-99,-99,-99,down,0,29,0,0,0,0,0,5,5,5,A0,right,0,1.3540446001570672,2,2021_Oct_14_1253,simPEL-EEG_ses-3_part-4_label-recog,2021.1.4,59.996172201098204,
-99,Day3_practice_recog,-99,-99,down,1,0,7,7,-99,-99,stimuli/practice/14juicer2.jpg,-99,-99,-99,down,0,21,0,0,0,0,0,6,6,6,A0,left,0,0.5049378999974579,2,2021_Oct_14_1253,simPEL-EEG_ses-3_part-4_label-recog,2021.1.4,59.996172201098204,
-99,Day3_practice_recog,-99,-99,down,1,0,8,8,-99,-99,stimuli/practice/08gas_can.jpg,-99,-99,-99,down,0,27,0,0,0,0,0,7,7,7,A0,right,0,0.8117450999561697,2,2021_Oct_14_1253,simPEL-EEG_ses-3_part-4_label-recog,2021.1.4,59.996172201098204,
-99,Day3_practice_recog,-99,-99,down,1,0,9,9,-99,-99,stimuli/practice/11cake_birthday.jpg,-99,-99,-99,down,0,24,0,0,0,0,0,8,8,8,A0,left,0,0.8005410998594016,2,2021_Oct_14_1253,simPEL-EEG_ses-3_part-4_label-recog,2021.1.4,59.996172201098204,
-99,Day3_practice_recog,-99,-99,down,1,0,10,10,-99,-99,stimuli/practice/13syringe2.jpg,-99,-99,-99,down,0,18,0,0,0,0,0,9,9,9,A0,left,0,1.233457599999383,2,2021_Oct_14_1253,simPEL-EEG_ses-3_part-4_label-recog,2021.1.4,59.996172201098204,
-99,Day3_practice_recog,-99,-99,down,1,0,11,11,-99,-99,stimuli/practice/09eagle.jpg,-99,-99,-99,down,0,17,0,0,0,0,0,10,10,10,A0,left,0,0.8988848000299186,2,2021_Oct_14_1253,simPEL-EEG_ses-3_part-4_label-recog,2021.1.4,59.996172201098204,
-99,Day3_practice_recog,-99,-99,down,1,0,12,12,-99,-99,stimuli/practice/07coconut.jpg,-99,-99,-99,down,0,19,0,0,0,0,0,11,11,11,A0,right,0,0.6352457001339644,2,2021_Oct_14_1253,simPEL-EEG_ses-3_part-4_label-recog,2021.1.4,59.996172201098204,
2,Day3_recognition,right,left,,0,1,1,1,foil,19051,stimuli/small/nail_polish.jpg,foil,new,,left,90,18,1,0,1,0,0,0,0,0,A1,left,1,1.933202699990943,2,2021_Oct_14_1253,simPEL-EEG_ses-3_part-4_label-recog,2021.1.4,59.996172201098204,
2,Day3_recognition,right,left,,0,1,2,2,foil,29018,stimuli/big/bus_school.jpg,foil,new,,left,90,18,1,0,1,0,0,1,1,1,A1,left,1,1.0301091999281198,2,2021_Oct_14_1253,simPEL-EEG_ses-3_part-4_label-recog,2021.1.4,59.996172201098204,
2,Day3_recognition,right,left,,0,1,3,3,45.0,26045,stimuli/paired/big/saw1.jpg,nv_single,old,,right,71,15,1,0,1,0,0,2,2,2,A1,right,1,1.3289950001053512,2,2021_Oct_14_1253,simPEL-EEG_ses-3_part-4_label-recog,2021.1.4,59.996172201098204,
2,Day3_recognition,right,left,,0,1,4,4,64.0,-16024,stimuli/paired/small/glassBottle2.jpg,nv_single,old,,right,71,22,1,0,1,0,0,3,3,3,A1,left,0,0.7831520999316126,2,2021_Oct_14_1253,simPEL-EEG_ses-3_part-4_label-recog,2021.1.4,59.996172201098204,
2,Day3_recognition,right,left,,0,1,5,5,35.0,27066,stimuli/paired/big/trafficCone1.jpg,v_single,old,,right,70,24,1,0,1,0,0,4,4,4,A1,left,0,1.3639520001597703,2,2021_Oct_14_1253,simPEL-EEG_ses-3_part-4_label-recog,2021.1.4,59.996172201098204,
2,Day3_recognition,right,left,,0,1,6,6,foil,29026,stimuli/big/chair.jpg,foil,new,,left,90,17,1,0,1,0,0,5,5,5,A1,left,1,0.8375729001127183,2,2021_Oct_14_1253,simPEL-EEG_ses-3_part-4_label-recog,2021.1.4,59.996172201098204,
2,Day3_recognition,right,left,,0,1,7,7,21.0,27016,stimuli/paired/big/carriage1.jpg,v_single,old,,right,70,28,1,0,1,0,0,6,6,6,A1,right,1,0.8638296998105943,2,2021_Oct_14_1253,simPEL-EEG_ses-3_part-4_label-recog,2021.1.4,59.996172201098204,
2,Day3_recognition,right,left,,0,1,8,8,foil,19002,stimuli/small/apple.jpg,foil,new,,left,90,20,1,0,1,0,0,7,7,7,A1,right,0,1.215232599992305,2,2021_Oct_14_1253,simPEL-EEG_ses-3_part-4_label-recog,2021.1.4,59.996172201098204,
2,Day3_recognition,right,left,,0,1,9,9,foil,19060,stimuli/small/peas.jpg,foil,new,,left,90,25,1,0,1,0,0,8,8,8,A1,left,1,0.6994756998028606,2,2021_Oct_14_1253,simPEL-EEG_ses-3_part-4_label-recog,2021.1.4,59.996172201098204,
2,Day3_recognition,right,left,,0,1,10,10,foil,29024,stimuli/big/cart_shopping.jpg,foil,new,,left,90,24,1,0,1,0,0,9,9,9,A1,right,0,1.4561830000020564,2,2021_Oct_14_1253,simPEL-EEG_ses-3_part-4_label-recog,2021.1.4,59.996172201098204,
2,Day3_recognition,right,left,,0,1,11,11,48.0,26050,stimuli/paired/big/sewingMachine2.jpg,nv_single,old,,right,71,21,1,0,1,0,0,10,10,10,A1,right,1,0.9431867999956012,2,2021_Oct_14_1253,simPEL-EEG_ses-3_part-4_label-recog,2021.1.4,59.996172201098204,
2,Day3_recognition,right,left,,0,1,12,12,33.0,27001,stimuli/paired/big/abacus2.jpg,v_single,old,,right,70,24,1,0,1,0,0,11,11,11,A1,left,0,0.5640414000954479,2,2021_Oct_14_1253,simPEL-EEG_ses-3_part-4_label-recog,2021.1.4,59.996172201098204,
2,Day3_recognition,right,left,,0,1,13,13,54.0,26017,stimuli/paired/big/colander1.jpg,nv_single,old,,right,71,15,1,0,1,0,0,12,12,12,A1,right,1,0.8308514999225736,2,2021_Oct_14_1253,simPEL-EEG_ses-3_part-4_label-recog,2021.1.4,59.996172201098204,
2,Day3_recognition,right,left,,0,1,14,14,foil,19056,stimuli/small/paper_airplane.jpg,foil,new,,left,90,27,1,0,1,0,0,13,13,13,A1,right,0,0.6496861998457462,2,2021_Oct_14_1253,simPEL-EEG_ses-3_part-4_label-recog,2021.1.4,59.996172201098204,
2,Day3_recognition,right,left,,0,1,15,15,6.0,-15043,stimuli/paired/small/pliers1.jpg,v_single,old,,right,70,22,1,0,1,0,0,14,14,14,A1,left,0,0.6157888998277485,2,2021_Oct_14_1253,simPEL-EEG_ses-3_part-4_label-recog,2021.1.4,59.996172201098204,
2,Day3_recognition,right,left,,0,1,16,16,25.0,27051,stimuli/paired/big/suitcase2.jpg,v_single,old,,right,70,23,1,0,1,0,0,15,15,15,A1,right,1,0.6292840999085456,2,2021_Oct_14_1253,simPEL-EEG_ses-3_part-4_label-recog,2021.1.4,59.996172201098204,
2,Day3_recognition,right,left,,0,1,17,17,foil,19046,stimuli/small/lightbulb.jpg,foil,new,,left,90,17,1,0,1,0,0,16,16,16,A1,right,0,1.1107938000932336,2,2021_Oct_14_1253,simPEL-EEG_ses-3_part-4_label-recog,2021.1.4,59.996172201098204,
2,Day3_recognition,right,left,,0,1,18,18,foil,29062,stimuli/big/satellite.jpg,foil,new,,left,90,22,1,0,1,0,0,17,17,17,A1,right,0,0.7489394000731409,2,2021_Oct_14_1253,simPEL-EEG_ses-3_part-4_label-recog,2021.1.4,59.996172201098204,
2,Day3_recognition,right,left,,0,1,19,19,13.0,17006,stimuli/paired/small/belt1.jpg,v_single,old,,right,70,26,1,0,1,0,0,18,18,18,A1,left,0,0.5926248000469059,2,2021_Oct_14_1253,simPEL-EEG_ses-3_part-4_label-recog,2021.1.4,59.996172201098204,
2,Day3_recognition,right,left,,0,1,20,20,59.0,18001,stimuli/paired/small/babyBottle2.jpg,nv_single,old,,right,71,20,1,0,1,0,0,19,19,19,A1,right,1,1.3520549000240862,2,2021_Oct_14_1253,simPEL-EEG_ses-3_part-4_label-recog,2021.1.4,59.996172201098204,
2,Day3_recognition,right,left,,0,1,21,21,foil,29019,stimuli/big/cabinet.jpg,foil,new,,left,90,18,1,0,1,0,0,20,20,20,A1,left,1,0.7448071001563221,2,2021_Oct_14_1253,simPEL-EEG_ses-3_part-4_label-recog,2021.1.4,59.996172201098204,
2,Day3_recognition,right,left,,0,1,22,22,62.0,-16055,stimuli/paired/small/spade1.jpg,nv_single,old,,right,71,24,1,0,1,0,0,21,21,21,A1,left,0,1.1096580000594258,2,2021_Oct_14_1253,simPEL-EEG_ses-3_part-4_label-recog,2021.1.4,59.996172201098204,
2,Day3_recognition,right,left,,0,1,23,23,44.0,26010,stimuli/paired/big/briefcase2.jpg,nv_single,old,,right,71,28,1,0,1,0,0,22,22,22,A1,right,1,1.127850300166756,2,2021_Oct_14_1253,simPEL-EEG_ses-3_part-4_label-recog,2021.1.4,59.996172201098204,
2,Day3_recognition,right,left,,0,1,24,24,55.0,18036,stimuli/paired/small/hooks1.jpg,nv_single,old,,right,71,29,1,0,1,0,0,23,23,23,A1,right,1,0.6172935001086444,2,2021_Oct_14_1253,simPEL-EEG_ses-3_part-4_label-recog,2021.1.4,59.996172201098204,
2,Day3_recognition,right,left,,0,1,25,25,19.0,25039,stimuli/paired/big/radio1.jpg,v_single,old,,right,70,27,1,0,1,0,0,24,24,24,A1,right,1,1.1481551001779735,2,2021_Oct_14_1253,simPEL-EEG_ses-3_part-4_label-recog,2021.1.4,59.996172201098204,
2,Day3_recognition,right,left,,0,1,26,26,3.0,17020,stimuli/paired/small/electricRazor1.jpg,v_single,old,,right,70,15,1,0,1,0,0,25,25,25,A1,right,1,1.0390602999832481,2,2021_Oct_14_1253,simPEL-EEG_ses-3_part-4_label-recog,2021.1.4,59.996172201098204,
2,Day3_recognition,right,left,,0,1,27,27,63.0,18031,stimuli/paired/small/hairBrush2.jpg,nv_single,old,,right,71,18,1,0,1,0,0,26,26,26,A1,right,1,1.031912200152874,2,2021_Oct_14_1253,simPEL-EEG_ses-3_part-4_label-recog,2021.1.4,59.996172201098204,
2,Day3_recognition,right,left,,0,1,28,28,23.0,25029,stimuli/paired/big/hairdryer1.jpg,v_single,old,,right,70,25,1,0,1,0,0,27,27,27,A1,right,1,0.828032199991867,2,2021_Oct_14_1253,simPEL-EEG_ses-3_part-4_label-recog,2021.1.4,59.996172201098204,
2,Day3_recognition,right,left,,0,1,29,29,foil,29068,stimuli/big/stairs.jpg,foil,new,,left,90,15,1,0,1,0,0,28,28,28,A1,left,1,0.9588957000523806,2,2021_Oct_14_1253,simPEL-EEG_ses-3_part-4_label-recog,2021.1.4,59.996172201098204,
2,Day3_recognition,right,left,,0,1,30,30,27.0,25020,stimuli/paired/big/espressoMachine2.jpg,v_single,old,,right,70,19,1,0,1,0,0,29,29,29,A1,left,0,1.1830243999138474,2,2021_Oct_14_1253,simPEL-EEG_ses-3_part-4_label-recog,2021.1.4,59.996172201098204,
2,Day3_recognition,right,left,,0,1,31,31,38.0,28012,stimuli/paired/big/broom1.jpg,nv_single,old,,right,71,22,1,0,1,0,0,30,30,30,A1,right,1,0.8052968999836594,2,2021_Oct_14_1253,simPEL-EEG_ses-3_part-4_label-recog,2021.1.4,59.996172201098204,
2,Day3_recognition,right,left,,0,1,32,32,42.0,28058,stimuli/paired/big/tent1.jpg,nv_single,old,,right,71,27,1,0,1,0,0,31,31,31,A1,right,1,0.6320772999897599,2,2021_Oct_14_1253,simPEL-EEG_ses-3_part-4_label-recog,2021.1.4,59.996172201098204,
2,Day3_recognition,right,left,,0,1,33,33,52.0,26061,stimuli/paired/big/toaster1.jpg,nv_single,old,,right,71,26,1,0,1,0,0,32,32,32,A1,left,0,0.7076638001017272,2,2021_Oct_14_1253,simPEL-EEG_ses-3_part-4_label-recog,2021.1.4,59.996172201098204,
2,Day3_recognition,right,left,,0,1,34,34,56.0,-16052,stimuli/paired/small/seatbelt2.jpg,nv_single,old,,right,71,19,1,0,1,0,0,33,33,33,A1,right,1,1.0356689000036567,2,2021_Oct_14_1253,simPEL-EEG_ses-3_part-4_label-recog,2021.1.4,59.996172201098204,
2,Day3_recognition,right,left,,0,1,35,35,34.0,27047,stimuli/paired/big/scale2.jpg,v_single,old,,right,70,22,1,0,1,0,0,34,34,34,A1,right,1,0.7141203999053687,2,2021_Oct_14_1253,simPEL-EEG_ses-3_part-4_label-recog,2021.1.4,59.996172201098204,
2,Day3_recognition,right,left,,0,1,36,36,foil,19037,stimuli/small/glasses.jpg,foil,new,,left,90,18,1,0,1,0,0,35,35,35,A1,left,1,0.7947742000687867,2,2021_Oct_14_1253,simPEL-EEG_ses-3_part-4_label-recog,2021.1.4,59.996172201098204,
2,Day3_recognition,right,left,,0,1,37,37,41.0,28013,stimuli/paired/big/candelabra2.jpg,nv_single,old,,right,71,20,1,0,1,0,0,36,36,36,A1,right,1,0.6582981999963522,2,2021_Oct_14_1253,simPEL-EEG_ses-3_part-4_label-recog,2021.1.4,59.996172201098204,
2,Day3_recognition,right,left,,0,1,38,38,68.0,18049,stimuli/paired/small/scissors2.jpg,nv_single,old,,right,71,28,1,0,1,0,0,37,37,37,A1,left,0,1.1003892000298947,2,2021_Oct_14_1253,simPEL-EEG_ses-3_part-4_label-recog,2021.1.4,59.996172201098204,
2,Day3_recognition,right,left,,0,1,39,39,foil,29007,stimuli/big/bicycle.jpg,foil,new,,left,90,21,1,0,1,0,0,38,38,38,A1,right,0,0.8592829999979585,2,2021_Oct_14_1253,simPEL-EEG_ses-3_part-4_label-recog,2021.1.4,59.996172201098204,
2,Day3_recognition,right,left,,0,1,40,40,1.0,17068,stimuli/paired/small/walkieTalkie1.jpg,v_single,old,,right,70,23,1,0,1,0,0,39,39,39,A1,right,1,0.7288971999660134,2,2021_Oct_14_1253,simPEL-EEG_ses-3_part-4_label-recog,2021.1.4,59.996172201098204,
2,Day3_recognition,right,left,,0,1,41,41,32.0,25025,stimuli/paired/big/gasPump1.jpg,v_single,old,,right,70,16,1,0,1,0,0,40,40,40,A1,right,1,1.922970699844882,2,2021_Oct_14_1253,simPEL-EEG_ses-3_part-4_label-recog,2021.1.4,59.996172201098204,
2,Day3_recognition,right,left,,0,1,42,42,foil,19086,stimuli/small/tomato.jpg,foil,new,,left,90,28,1,0,1,0,0,41,41,41,A1,left,1,0.6291948000434786,2,2021_Oct_14_1253,simPEL-EEG_ses-3_part-4_label-recog,2021.1.4,59.996172201098204,
2,Day3_recognition,right,left,,0,1,43,43,foil,19001,stimuli/small/acorn.jpg,foil,new,,left,90,19,1,0,1,0,0,42,42,42,A1,left,1,0.6453451998531818,2,2021_Oct_14_1253,simPEL-EEG_ses-3_part-4_label-recog,2021.1.4,59.996172201098204,
2,Day3_recognition,right,left,,0,1,44,44,foil,19048,stimuli/small/mask.jpg,foil,new,,left,90,27,1,0,1,0,0,43,43,43,A1,left,1,0.6401506001129746,2,2021_Oct_14_1253,simPEL-EEG_ses-3_part-4_label-recog,2021.1.4,59.996172201098204,
2,Day3_recognition,right,left,,0,1,45,45,foil,19043,stimuli/small/kiwi.jpg,foil,new,,left,90,23,1,0,1,0,0,44,44,44,A1,right,0,0.9016348000150174,2,2021_Oct_14_1253,simPEL-EEG_ses-3_part-4_label-recog,2021.1.4,59.996172201098204,
2,Day3_recognition,right,left,,0,1,46,46,28.0,25063,stimuli/paired/big/toolbox1.jpg,v_single,old,,right,70,29,1,0,1,0,0,45,45,45,A1,left,0,0.6791924999561161,2,2021_Oct_14_1253,simPEL-EEG_ses-3_part-4_label-recog,2021.1.4,59.996172201098204,
2,Day3_recognition,right,left,,0,1,47,47,20.0,25043,stimuli/paired/big/safe1.jpg,v_single,old,,right,70,26,1,0,1,0,0,46,46,46,A1,right,1,0.9546940000727773,2,2021_Oct_14_1253,simPEL-EEG_ses-3_part-4_label-recog,2021.1.4,59.996172201098204,
2,Day3_recognition,right,left,,0,1,48,48,43.0,28022,stimuli/paired/big/fancyutensils1.jpg,nv_single,old,,right,71,23,1,0,1,0,0,47,47,47,A1,left,0,1.6001673000864685,2,2021_Oct_14_1253,simPEL-EEG_ses-3_part-4_label-recog,2021.1.4,59.996172201098204,
2,Day3_recognition,right,left,,0,1,49,49,2.0,-15014,stimuli/paired/small/cd2.jpg,v_single,old,,right,70,28,1,0,1,0,0,48,48,48,A1,right,1,1.4103435000870377,2,2021_Oct_14_1253,simPEL-EEG_ses-3_part-4_label-recog,2021.1.4,59.996172201098204,
2,Day3_recognition,right,left,,0,1,50,50,69.0,18042,stimuli/paired/small/perfumeBottle1.jpg,nv_single,old,,right,71,26,1,0,1,0,0,49,49,49,A1,left,0,1.5018106999341398,2,2021_Oct_14_1253,simPEL-EEG_ses-3_part-4_label-recog,2021.1.4,59.996172201098204,
2,Day3_recognition,right,left,,0,1,51,51,11.0,17027,stimuli/paired/small/grater2.jpg,v_single,old,,right,70,29,1,0,1,0,0,50,50,50,A1,right,1,0.9215372998733073,2,2021_Oct_14_1253,simPEL-EEG_ses-3_part-4_label-recog,2021.1.4,59.996172201098204,
2,Day3_recognition,right,left,,0,1,52,52,37.0,26070,stimuli/paired/big/wateringCan2.jpg,nv_single,old,,right,71,29,1,0,1,0,0,51,51,51,A1,left,0,1.776966799981892,2,2021_Oct_14_1253,simPEL-EEG_ses-3_part-4_label-recog,2021.1.4,59.996172201098204,
2,Day3_recognition,right,left,,0,1,53,53,foil,19032,stimuli/small/domino.jpg,foil,new,,left,90,16,1,0,1,0,0,52,52,52,A1,right,0,0.6830635000951588,2,2021_Oct_14_1253,simPEL-EEG_ses-3_part-4_label-recog,2021.1.4,59.996172201098204,
2,Day3_recognition,right,left,,0,1,54,54,9.0,-15003,stimuli/paired/small/bell1.jpg,v_single,old,,right,70,26,1,0,1,0,0,53,53,53,A1,right,1,1.4546006000600755,2,2021_Oct_14_1253,simPEL-EEG_ses-3_part-4_label-recog,2021.1.4,59.996172201098204,
2,Day3_recognition,right,left,,0,2,1,55,foil,19081,stimuli/small/strawberry.jpg,foil,new,,left,90,29,2,0,2,0,0,0,0,0,A2,left,1,1.2516235997900367,2,2021_Oct_14_1253,simPEL-EEG_ses-3_part-4_label-recog,2021.1.4,59.996172201098204,
2,Day3_recognition,right,left,,0,2,2,56,foil,29001,stimuli/big/backhoe.jpg,foil,new,,left,90,27,2,0,2,0,0,1,1,1,A2,right,0,0.7425547000020742,2,2021_Oct_14_1253,simPEL-EEG_ses-3_part-4_label-recog,2021.1.4,59.996172201098204,
2,Day3_recognition,right,left,,0,2,3,57,57.0,18059,stimuli/paired/small/tack2.jpg,nv_single,old,,right,71,16,2,0,2,0,0,2,2,2,A2,left,0,1.064807299990207,2,2021_Oct_14_1253,simPEL-EEG_ses-3_part-4_label-recog,2021.1.4,59.996172201098204,
2,Day3_recognition,right,left,,0,2,4,58,14.0,-15011,stimuli/paired/small/camera1.jpg,v_single,old,,right,70,28,2,0,2,0,0,3,3,3,A2,right,1,1.0508123999461532,2,2021_Oct_14_1253,simPEL-EEG_ses-3_part-4_label-recog,2021.1.4,59.996172201098204,
2,Day3_recognition,right,left,,0,2,5,59,16.0,-15026,stimuli/paired/small/glove2.jpg,v_single,old,,right,70,17,2,0,2,0,0,4,4,4,A2,left,0,0.9163871000055224,2,2021_Oct_14_1253,simPEL-EEG_ses-3_part-4_label-recog,2021.1.4,59.996172201098204,
2,Day3_recognition,right,left,,0,2,6,60,7.0,-15030,stimuli/paired/small/gravyBoat2.jpg,v_single,old,,right,70,15,2,0,2,0,0,5,5,5,A2,right,1,1.5592330999206752,2,2021_Oct_14_1253,simPEL-EEG_ses-3_part-4_label-recog,2021.1.4,59.996172201098204,
2,Day3_recognition,right,left,,0,2,7,61,foil,29075,stimuli/big/table_pool.jpg,foil,new,,left,90,17,2,0,2,0,0,6,6,6,A2,right,0,1.0967511001508683,2,2021_Oct_14_1253,simPEL-EEG_ses-3_part-4_label-recog,2021.1.4,59.996172201098204,
2,Day3_recognition,right,left,,0,2,8,62,61.0,18017,stimuli/paired/small/drawingCompass2.jpg,nv_single,old,,right,71,22,2,0,2,0,0,7,7,7,A2,right,1,0.905290599912405,2,2021_Oct_14_1253,simPEL-EEG_ses-3_part-4_label-recog,2021.1.4,59.996172201098204,
2,Day3_recognition,right,left,,0,2,9,63,71.0,-16008,stimuli/paired/small/binoculars2.jpg,nv_single,old,,right,71,21,2,0,2,0,0,8,8,8,A2,left,0,0.44582829996943474,2,2021_Oct_14_1253,simPEL-EEG_ses-3_part-4_label-recog,2021.1.4,59.996172201098204,
2,Day3_recognition,right,left,,0,2,10,64,26.0,25023,stimuli/paired/big/fireExtinguisher1.jpg,v_single,old,,right,70,17,2,0,2,0,0,9,9,9,A2,left,0,1.7993856999091804,2,2021_Oct_14_1253,simPEL-EEG_ses-3_part-4_label-recog,2021.1.4,59.996172201098204,
2,Day3_recognition,right,left,,0,2,11,65,10.0,17070,stimuli/paired/small/watch1.jpg,v_single,old,,right,70,22,2,0,2,0,0,10,10,10,A2,left,0,0.7174533000215888,2,2021_Oct_14_1253,simPEL-EEG_ses-3_part-4_label-recog,2021.1.4,59.996172201098204,
2,Day3_recognition,right,left,,0,2,12,66,67.0,-16038,stimuli/paired/small/knife2.jpg,nv_single,old,,right,71,22,2,0,2,0,0,11,11,11,A2,left,0,0.8356184000149369,2,2021_Oct_14_1253,simPEL-EEG_ses-3_part-4_label-recog,2021.1.4,59.996172201098204,
2,Day3_recognition,right,left,,0,2,13,67,40.0,28031,stimuli/paired/big/lamp2.jpg,nv_single,old,,right,71,17,2,0,2,0,0,12,12,12,A2,right,1,0.9892998998984694,2,2021_Oct_14_1253,simPEL-EEG_ses-3_part-4_label-recog,2021.1.4,59.996172201098204,
2,Day3_recognition,right,left,,0,2,14,68,51.0,26006,stimuli/paired/big/bikeWheel2.jpg,nv_single,old,,right,71,27,2,0,2,0,0,13,13,13,A2,right,1,0.7839508999604732,2,2021_Oct_14_1253,simPEL-EEG_ses-3_part-4_label-recog,2021.1.4,59.996172201098204,
2,Day3_recognition,right,left,,0,2,15,69,foil,29023,stimuli/big/car_all_terrain_vehicle.jpg,foil,new,,left,90,16,2,0,2,0,0,14,14,14,A2,right,0,0.7383771000895649,2,2021_Oct_14_1253,simPEL-EEG_ses-3_part-4_label-recog,2021.1.4,59.996172201098204,
2,Day3_recognition,right,left,,0,2,16,70,50.0,28038,stimuli/paired/big/racket1.jpg,nv_single,old,,right,71,17,2,0,2,0,0,15,15,15,A2,right,1,0.7797652001027018,2,2021_Oct_14_1253,simPEL-EEG_ses-3_part-4_label-recog,2021.1.4,59.996172201098204,
2,Day3_recognition,right,left,,0,2,17,71,29.0,25034,stimuli/paired/big/laundrybasket2.jpg,v_single,old,,right,70,23,2,0,2,0,0,16,16,16,A2,right,1,0.6732498998753726,2,2021_Oct_14_1253,simPEL-EEG_ses-3_part-4_label-recog,2021.1.4,59.996172201098204,
2,Day3_recognition,right,left,,0,2,18,72,foil,29013,stimuli/big/board_key.jpg,foil,new,,left,90,24,2,0,2,0,0,17,17,17,A2,right,0,0.7740549999289215,2,2021_Oct_14_1253,simPEL-EEG_ses-3_part-4_label-recog,2021.1.4,59.996172201098204,
2,Day3_recognition,right,left,,0,2,19,73,foil,29087,stimuli/big/z_boat_house.jpg,foil,new,,left,90,22,2,0,2,0,0,18,18,18,A2,right,0,0.9404319000896066,2,2021_Oct_14_1253,simPEL-EEG_ses-3_part-4_label-recog,2021.1.4,59.996172201098204,
2,Day3_recognition,right,left,,0,2,20,74,72.0,-16047,stimuli/paired/small/safetyPin1.jpg,nv_single,old,,right,71,22,2,0,2,0,0,19,19,19,A2,left,0,0.9224611001554877,2,2021_Oct_14_1253,simPEL-EEG_ses-3_part-4_label-recog,2021.1.4,59.996172201098204,
2,Day3_recognition,right,left,,0,2,21,75,39.0,28027,stimuli/paired/big/gramophone2.jpg,nv_single,old,,right,71,19,2,0,2,0,0,20,20,20,A2,left,0,1.1306076000910252,2,2021_Oct_14_1253,simPEL-EEG_ses-3_part-4_label-recog,2021.1.4,59.996172201098204,
2,Day3_recognition,right,left,,0,2,22,76,foil,19003,stimuli/small/avocado.jpg,foil,new,,left,90,23,2,0,2,0,0,21,21,21,A2,right,0,1.0000918000005186,2,2021_Oct_14_1253,simPEL-EEG_ses-3_part-4_label-recog,2021.1.4,59.996172201098204,
2,Day3_recognition,right,left,,0,2,23,77,49.0,26071,stimuli/paired/big/weedwhacker1.jpg,nv_single,old,,right,71,25,2,0,2,0,0,22,22,22,A2,left,0,1.260313899954781,2,2021_Oct_14_1253,simPEL-EEG_ses-3_part-4_label-recog,2021.1.4,59.996172201098204,
2,Day3_recognition,right,left,,0,2,24,78,12.0,17064,stimuli/paired/small/toothbrush1.jpg,v_single,old,,right,70,26,2,0,2,0,0,23,23,23,A2,left,0,1.0879544999916106,2,2021_Oct_14_1253,simPEL-EEG_ses-3_part-4_label-recog,2021.1.4,59.996172201098204,
2,Day3_recognition,right,left,,0,2,25,79,70.0,18062,stimuli/paired/small/tape1.jpg,nv_single,old,,right,71,26,2,0,2,0,0,24,24,24,A2,left,0,0.8832475000526756,2,2021_Oct_14_1253,simPEL-EEG_ses-3_part-4_label-recog,2021.1.4,59.996172201098204,
2,Day3_recognition,right,left,,0,2,26,80,4.0,-15045,stimuli/paired/small/plug1.jpg,v_single,old,,right,70,20,2,0,2,0,0,25,25,25,A2,right,1,0.9387960999738425,2,2021_Oct_14_1253,simPEL-EEG_ses-3_part-4_label-recog,2021.1.4,59.996172201098204,
2,Day3_recognition,right,left,,0,2,27,81,30.0,27068,stimuli/paired/big/typeWriter1.jpg,v_single,old,,right,70,22,2,0,2,0,0,26,26,26,A2,right,1,0.865033800015226,2,2021_Oct_14_1253,simPEL-EEG_ses-3_part-4_label-recog,2021.1.4,59.996172201098204,
2,Day3_recognition,right,left,,0,2,28,82,58.0,-16016,stimuli/paired/small/dice2.jpg,nv_single,old,,right,71,19,2,0,2,0,0,27,27,27,A2,left,0,1.2651536001358181,2,2021_Oct_14_1253,simPEL-EEG_ses-3_part-4_label-recog,2021.1.4,59.996172201098204,
2,Day3_recognition,right,left,,0,2,29,83,15.0,17040,stimuli/paired/small/lighter1.jpg,v_single,old,,right,70,30,2,0,2,0,0,28,28,28,A2,right,1,0.8739861000794917,2,2021_Oct_14_1253,simPEL-EEG_ses-3_part-4_label-recog,2021.1.4,59.996172201098204,
2,Day3_recognition,right,left,,0,2,30,84,foil,29002,stimuli/big/bag_sleeping.jpg,foil,new,,left,90,20,2,0,2,0,0,29,29,29,A2,right,0,1.169487199978903,2,2021_Oct_14_1253,simPEL-EEG_ses-3_part-4_label-recog,2021.1.4,59.996172201098204,
2,Day3_recognition,right,left,,0,2,31,85,foil,19077,stimuli/small/stamp.jpg,foil,new,,left,90,28,2,0,2,0,0,30,30,30,A2,right,0,0.6597190999891609,2,2021_Oct_14_1253,simPEL-EEG_ses-3_part-4_label-recog,2021.1.4,59.996172201098204,
2,Day3_recognition,right,left,,0,2,32,86,18.0,17010,stimuli/paired/small/calculator1.jpg,v_single,old,,right,70,18,2,0,2,0,0,31,31,31,A2,left,0,1.0528800999745727,2,2021_Oct_14_1253,simPEL-EEG_ses-3_part-4_label-recog,2021.1.4,59.996172201098204,
2,Day3_recognition,right,left,,0,2,33,87,foil,29010,stimuli/big/bin_recycling.jpg,foil,new,,left,90,21,2,0,2,0,0,32,32,32,A2,right,0,0.7715753000229597,2,2021_Oct_14_1253,simPEL-EEG_ses-3_part-4_label-recog,2021.1.4,59.996172201098204,
2,Day3_recognition,right,left,,0,2,34,88,24.0,25055,stimuli/paired/big/telescope1.jpg,v_single,old,,right,70,29,2,0,2,0,0,33,33,33,A2,left,0,0.9808638000395149,2,2021_Oct_14_1253,simPEL-EEG_ses-3_part-4_label-recog,2021.1.4,59.996172201098204,
2,Day3_recognition,right,left,,0,2,35,89,5.0,17072,stimuli/paired/small/wrench1.jpg,v_single,old,,right,70,20,2,0,2,0,0,34,34,34,A2,left,0,0.9324172001797706,2,2021_Oct_14_1253,simPEL-EEG_ses-3_part-4_label-recog,2021.1.4,59.996172201098204,
2,Day3_recognition,right,left,,0,2,36,90,31.0,27004,stimuli/paired/big/bikePump1.jpg,v_single,old,,right,70,29,2,0,2,0,0,35,35,35,A2,right,1,1.7738286999519914,2,2021_Oct_14_1253,simPEL-EEG_ses-3_part-4_label-recog,2021.1.4,59.996172201098204,
2,Day3_recognition,right,left,,0,2,37,91,8.0,-15054,stimuli/paired/small/showerHead2.jpg,v_single,old,,right,70,22,2,0,2,0,0,36,36,36,A2,right,1,0.9641072999220341,2,2021_Oct_14_1253,simPEL-EEG_ses-3_part-4_label-recog,2021.1.4,59.996172201098204,
2,Day3_recognition,right,left,,0,2,38,92,46.0,28035,stimuli/paired/big/plunger2.jpg,nv_single,old,,right,71,25,2,0,2,0,0,37,37,37,A2,right,1,1.592156199971214,2,2021_Oct_14_1253,simPEL-EEG_ses-3_part-4_label-recog,2021.1.4,59.996172201098204,
2,Day3_recognition,right,left,,0,2,39,93,foil,19024,stimuli/small/coin_nickel.jpg,foil,new,,left,90,28,2,0,2,0,0,38,38,38,A2,right,0,0.7223898998927325,2,2021_Oct_14_1253,simPEL-EEG_ses-3_part-4_label-recog,2021.1.4,59.996172201098204,
2,Day3_recognition,right,left,,0,2,40,94,53.0,26007,stimuli/paired/big/blender1.jpg,nv_single,old,,right,71,16,2,0,2,0,0,39,39,39,A2,left,0,0.6765348000917584,2,2021_Oct_14_1253,simPEL-EEG_ses-3_part-4_label-recog,2021.1.4,59.996172201098204,
2,Day3_recognition,right,left,,0,2,41,95,36.0,25041,stimuli/paired/big/rollerSkate1.jpg,v_single,old,,right,70,22,2,0,2,0,0,40,40,40,A2,right,1,1.1866678998339921,2,2021_Oct_14_1253,simPEL-EEG_ses-3_part-4_label-recog,2021.1.4,59.996172201098204,
2,Day3_recognition,right,left,,0,2,42,96,17.0,17058,stimuli/paired/small/staplerRemover1.jpg,v_single,old,,right,70,21,2,0,2,0,0,41,41,41,A2,right,1,1.097635200014338,2,2021_Oct_14_1253,simPEL-EEG_ses-3_part-4_label-recog,2021.1.4,59.996172201098204,
2,Day3_recognition,right,left,,0,2,43,97,foil,19009,stimuli/small/brocolli.jpg,foil,new,,left,90,25,2,0,2,0,0,42,42,42,A2,right,0,0.7337295000907034,2,2021_Oct_14_1253,simPEL-EEG_ses-3_part-4_label-recog,2021.1.4,59.996172201098204,
2,Day3_recognition,right,left,,0,2,44,98,22.0,27060,stimuli/paired/big/tire1.jpg,v_single,old,,right,70,25,2,0,2,0,0,43,43,43,A2,left,0,0.7619481000583619,2,2021_Oct_14_1253,simPEL-EEG_ses-3_part-4_label-recog,2021.1.4,59.996172201098204,
2,Day3_recognition,right,left,,0,2,45,99,47.0,28053,stimuli/paired/big/tableSaw2.jpg,nv_single,old,,right,71,29,2,0,2,0,0,44,44,44,A2,right,1,1.059461300028488,2,2021_Oct_14_1253,simPEL-EEG_ses-3_part-4_label-recog,2021.1.4,59.996172201098204,
2,Day3_recognition,right,left,,0,2,46,100,foil,29083,stimuli/big/vest_life.jpg,foil,new,,left,90,18,2,0,2,0,0,45,45,45,A2,right,0,0.5803140001371503,2,2021_Oct_14_1253,simPEL-EEG_ses-3_part-4_label-recog,2021.1.4,59.996172201098204,
2,Day3_recognition,right,left,,0,2,47,101,foil,29037,stimuli/big/food_processor.jpg,foil,new,,left,90,27,2,0,2,0,0,46,46,46,A2,left,1,0.9190883999690413,2,2021_Oct_14_1253,simPEL-EEG_ses-3_part-4_label-recog,2021.1.4,59.996172201098204,
2,Day3_recognition,right,left,,0,2,48,102,foil,19006,stimuli/small/bandaid.jpg,foil,new,,left,90,18,2,0,2,0,0,47,47,47,A2,left,1,1.1679004000034183,2,2021_Oct_14_1253,simPEL-EEG_ses-3_part-4_label-recog,2021.1.4,59.996172201098204,
2,Day3_recognition,right,left,,0,2,49,103,foil,19084,stimuli/small/thread.jpg,foil,new,,left,90,24,2,0,2,0,0,48,48,48,A2,right,0,0.7568747999612242,2,2021_Oct_14_1253,simPEL-EEG_ses-3_part-4_label-recog,2021.1.4,59.996172201098204,
2,Day3_recognition,right,left,,0,2,50,104,65.0,18033,stimuli/paired/small/harmonica2.jpg,nv_single,old,,right,71,22,2,0,2,0,0,49,49,49,A2,right,1,0.7949891998432577,2,2021_Oct_14_1253,simPEL-EEG_ses-3_part-4_label-recog,2021.1.4,59.996172201098204,
2,Day3_recognition,right,left,,0,2,51,105,foil,29028,stimuli/big/chair_lawn.jpg,foil,new,,left,90,15,2,0,2,0,0,50,50,50,A2,right,0,0.5338043000083417,2,2021_Oct_14_1253,simPEL-EEG_ses-3_part-4_label-recog,2021.1.4,59.996172201098204,
2,Day3_recognition,right,left,,0,2,52,106,66.0,-16021,stimuli/paired/small/garlicpress1.jpg,nv_single,old,,right,71,27,2,0,2,0,0,51,51,51,A2,left,0,0.8486699000932276,2,2021_Oct_14_1253,simPEL-EEG_ses-3_part-4_label-recog,2021.1.4,59.996172201098204,
2,Day3_recognition,right,left,,0,2,53,107,60.0,-16065,stimuli/paired/small/toyTruck1.jpg,nv_single,old,,right,71,23,2,0,2,0,0,52,52,52,A2,left,0,1.3741607998963445,2,2021_Oct_14_1253,simPEL-EEG_ses-3_part-4_label-recog,2021.1.4,59.996172201098204,
2,Day3_recognition,right,left,,0,2,54,108,foil,29072,stimuli/big/stroller.jpg,foil,new,,left,90,29,2,0,2,0,0,53,53,53,A2,right,0,1.103667600080371,2,2021_Oct_14_1253,simPEL-EEG_ses-3_part-4_label-recog,2021.1.4,59.996172201098204,
