﻿ID,expPart,isPractice,blockIdx,trialIdx,totalTrialIdx,violation,pairID,firstItemCode,firstItemFile,option1Code,option1File,option2Code,option2File,option3Code,option3File,corrOption,corrResp,trigVar,jitVar,blocks.thisRepN,blocks.thisTrialN,blocks.thisN,blocks.thisIndex,trials.thisRepN,trials.thisTrialN,trials.thisN,trials.thisIndex,blockID,assoc_resp.keys,assoc_resp.corr,assoc_resp.rt,participant,date,expName,psychopyVersion,frameRate,
-99,Day3_practice_assoc,1,0,1,1,-99,-99,-99,stimuli/practice/02_cutboard.jpg,-99,stimuli/practice/04juicer1.jpg,-99,stimuli/practice/07coconut.jpg,-99,stimuli/practice/15makeupBrush2.jpg,1,a,0,15,0,0,0,0,0,0,0,0,A0,d,0,3.293458600062877,2,2021_Oct_14_1316,simPEL-EEG_ses-3_part-6_label-assoc,2021.1.4,59.99638825976986,
-99,Day3_practice_assoc,1,0,2,2,-99,-99,-99,stimuli/practice/01_Air_freshener.jpg,-99,stimuli/practice/11cake_birthday.jpg,-99,stimuli/practice/03syringe1.jpg,-99,stimuli/practice/12_brush_comb.jpg,2,s,0,20,0,0,0,0,0,1,1,1,A0,d,0,2.424270800082013,2,2021_Oct_14_1316,simPEL-EEG_ses-3_part-6_label-assoc,2021.1.4,59.99638825976986,
-99,Day3_practice_assoc,1,0,3,3,-99,-99,-99,stimuli/practice/05makeupBrush1.jpg,-99,stimuli/practice/12_brush_comb.jpg,-99,stimuli/practice/11cake_birthday.jpg,-99,stimuli/practice/01_Air_freshener.jpg,3,d,0,23,0,0,0,0,0,2,2,2,A0,s,0,4.05701439990662,2,2021_Oct_14_1316,simPEL-EEG_ses-3_part-6_label-assoc,2021.1.4,59.99638825976986,
-99,Day3_practice_assoc,1,0,4,4,-99,-99,-99,stimuli/practice/03syringe1.jpg,-99,stimuli/practice/06computer.jpg,-99,stimuli/practice/09eagle.jpg,-99,stimuli/practice/02_cutboard.jpg,3,d,0,18,0,0,0,0,0,3,3,3,A0,a,0,3.2053210001904517,2,2021_Oct_14_1316,simPEL-EEG_ses-3_part-6_label-assoc,2021.1.4,59.99638825976986,
-99,Day3_practice_assoc,1,0,5,5,-99,-99,-99,stimuli/practice/07coconut.jpg,-99,stimuli/practice/05makeupBrush1.jpg,-99,stimuli/practice/08gas_can.jpg,-99,stimuli/practice/14juicer2.jpg,2,s,0,21,0,0,0,0,0,4,4,4,A0,s,1,2.495242799865082,2,2021_Oct_14_1316,simPEL-EEG_ses-3_part-6_label-assoc,2021.1.4,59.99638825976986,
-99,Day3_practice_assoc,1,0,6,6,-99,-99,-99,stimuli/practice/08gas_can.jpg,-99,stimuli/practice/13syringe2.jpg,-99,stimuli/practice/05makeupBrush1.jpg,-99,stimuli/practice/01_Air_freshener.jpg,2,s,0,24,0,0,0,0,0,5,5,5,A0,s,1,2.3511122001800686,2,2021_Oct_14_1316,simPEL-EEG_ses-3_part-6_label-assoc,2021.1.4,59.99638825976986,
-99,Day3_practice_assoc,1,0,7,7,-99,-99,-99,stimuli/practice/06computer.jpg,-99,stimuli/practice/07coconut.jpg,-99,stimuli/practice/04juicer1.jpg,-99,stimuli/practice/09eagle.jpg,1,a,0,20,0,0,0,0,0,6,6,6,A0,s,0,5.113858599914238,2,2021_Oct_14_1316,simPEL-EEG_ses-3_part-6_label-assoc,2021.1.4,59.99638825976986,
-99,Day3_practice_assoc,1,0,8,8,-99,-99,-99,stimuli/practice/05makeupBrush1.jpg,-99,stimuli/practice/01_Air_freshener.jpg,-99,stimuli/practice/08gas_can.jpg,-99,stimuli/practice/03syringe1.jpg,1,a,0,26,0,0,0,0,0,7,7,7,A0,a,1,2.4645992000587285,2,2021_Oct_14_1316,simPEL-EEG_ses-3_part-6_label-assoc,2021.1.4,59.99638825976986,
2,Day3_assoc,0,1,1,1,v,4,21040,stimuli/big/globe.jpg,-11083,stimuli/small/swabs_cotton.jpg,-11052,stimuli/small/needle.jpg,-11038,stimuli/small/harmonica.jpg,2,s,62,25,1,0,1,0,0,0,0,0,A1,s,1,1.3782881000079215,2,2021_Oct_14_1316,simPEL-EEG_ses-3_part-6_label-assoc,2021.1.4,59.99638825976986,
2,Day3_assoc,0,1,2,2,v,35,-11070,stimuli/small/raspberry.jpg,21049,stimuli/big/house_dog.jpg,21027,stimuli/big/chair_arm.jpg,21077,stimuli/big/television.jpg,3,d,62,17,1,0,1,0,0,1,1,1,A1,a,0,2.631110099842772,2,2021_Oct_14_1316,simPEL-EEG_ses-3_part-6_label-assoc,2021.1.4,59.99638825976986,
2,Day3_assoc,0,1,3,3,nv,60,-12054,stimuli/small/onion.jpg,22067,stimuli/big/sink_bathroom.jpg,22044,stimuli/big/gurney.jpg,22009,stimuli/big/bin_garbage.jpg,2,s,63,17,1,0,1,0,0,2,2,2,A1,d,0,2.0837155000772327,2,2021_Oct_14_1316,simPEL-EEG_ses-3_part-6_label-assoc,2021.1.4,59.99638825976986,
2,Day3_assoc,0,1,4,4,nv,40,22082,stimuli/big/umbrella.jpg,-12030,stimuli/small/dogcollar_name_plate.jpg,-12057,stimuli/small/pasta.jpg,-12011,stimuli/small/candle.jpg,1,a,63,20,1,0,1,0,0,3,3,3,A1,s,0,1.6466451999731362,2,2021_Oct_14_1316,simPEL-EEG_ses-3_part-6_label-assoc,2021.1.4,59.99638825976986,
2,Day3_assoc,0,1,5,5,v,14,21014,stimuli/big/boat.jpg,-11062,stimuli/small/pepper.jpg,-11005,stimuli/small/ball_base.jpg,-11025,stimuli/small/cookie.jpg,2,s,62,22,1,0,1,0,0,4,4,4,A1,d,0,4.135793900117278,2,2021_Oct_14_1316,simPEL-EEG_ses-3_part-6_label-assoc,2021.1.4,59.99638825976986,
2,Day3_assoc,0,1,6,6,nv,72,-12007,stimuli/small/bow.jpg,22044,stimuli/big/gurney.jpg,22053,stimuli/big/machine_washing.jpg,22012,stimuli/big/board_ironing.jpg,2,s,63,16,1,0,1,0,0,5,5,5,A1,s,1,5.045242500025779,2,2021_Oct_14_1316,simPEL-EEG_ses-3_part-6_label-assoc,2021.1.4,59.99638825976986,
2,Day3_assoc,0,1,7,7,nv,63,-12031,stimuli/small/dollar.jpg,22006,stimuli/big/bench_park.jpg,22086,stimuli/big/wheel_barrow.jpg,22048,stimuli/big/hockeytable.jpg,2,s,63,17,1,0,1,0,0,6,6,6,A1,a,0,1.3940446998458356,2,2021_Oct_14_1316,simPEL-EEG_ses-3_part-6_label-assoc,2021.1.4,59.99638825976986,
2,Day3_assoc,0,1,8,8,v,16,21005,stimuli/big/bed.jpg,-11015,stimuli/small/cheese_swiss.jpg,-11052,stimuli/small/needle.jpg,-11062,stimuli/small/pepper.jpg,1,a,62,19,1,0,1,0,0,7,7,7,A1,s,0,3.1573624999728054,2,2021_Oct_14_1316,simPEL-EEG_ses-3_part-6_label-assoc,2021.1.4,59.99638825976986,
2,Day3_assoc,0,1,9,9,nv,38,22033,stimuli/big/dishwasher.jpg,-12057,stimuli/small/pasta.jpg,-12053,stimuli/small/nest_bird.jpg,-12027,stimuli/small/crayon.jpg,2,s,63,17,1,0,1,0,0,8,8,8,A1,s,1,2.2901725999545306,2,2021_Oct_14_1316,simPEL-EEG_ses-3_part-6_label-assoc,2021.1.4,59.99638825976986,
2,Day3_assoc,0,1,10,10,nv,53,22071,stimuli/big/stick_hockey.jpg,-12019,stimuli/small/clip_hair.jpg,-12004,stimuli/small/bagel.jpg,-12044,stimuli/small/leaf.jpg,2,s,63,26,1,0,1,0,0,9,9,9,A1,s,1,0.9049354000017047,2,2021_Oct_14_1316,simPEL-EEG_ses-3_part-6_label-assoc,2021.1.4,59.99638825976986,
2,Day3_assoc,0,1,11,11,v,34,-11063,stimuli/small/pickle.jpg,21030,stimuli/big/couch.jpg,21081,stimuli/big/tub_hot.jpg,21041,stimuli/big/golf_clubs.jpg,1,a,62,22,1,0,1,0,0,10,10,10,A1,d,0,2.400871800025925,2,2021_Oct_14_1316,simPEL-EEG_ses-3_part-6_label-assoc,2021.1.4,59.99638825976986,
2,Day3_assoc,0,1,12,12,nv,61,-12047,stimuli/small/lipstick.jpg,22029,stimuli/big/chair_wheel.jpg,22011,stimuli/big/bin_storage.jpg,22048,stimuli/big/hockeytable.jpg,1,a,63,28,1,0,1,0,0,11,11,11,A1,s,0,1.6464710999280214,2,2021_Oct_14_1316,simPEL-EEG_ses-3_part-6_label-assoc,2021.1.4,59.99638825976986,
2,Day3_assoc,0,1,13,13,v,2,21032,stimuli/big/crutch.jpg,-11062,stimuli/small/pepper.jpg,-11042,stimuli/small/key.jpg,-11083,stimuli/small/swabs_cotton.jpg,1,a,62,30,1,0,1,0,0,12,12,12,A1,a,1,1.6023228999692947,2,2021_Oct_14_1316,simPEL-EEG_ses-3_part-6_label-assoc,2021.1.4,59.99638825976986,
2,Day3_assoc,0,1,14,14,v,11,21050,stimuli/big/instrument_saxophone.jpg,-11066,stimuli/small/pizza_cutter.jpg,-11017,stimuli/small/chip.jpg,-11088,stimuli/small/tweezers.jpg,3,d,62,26,1,0,1,0,0,13,13,13,A1,s,0,1.9291366999968886,2,2021_Oct_14_1316,simPEL-EEG_ses-3_part-6_label-assoc,2021.1.4,59.99638825976986,
2,Day3_assoc,0,1,15,15,v,3,21021,stimuli/big/cannoe.jpg,-11074,stimuli/small/screw.jpg,-11028,stimuli/small/cupcake.jpg,-11012,stimuli/small/card.jpg,1,a,62,17,1,0,1,0,0,14,14,14,A1,a,1,1.2300672000274062,2,2021_Oct_14_1316,simPEL-EEG_ses-3_part-6_label-assoc,2021.1.4,59.99638825976986,
2,Day3_assoc,0,1,16,16,nv,57,-12022,stimuli/small/coffee.jpg,22043,stimuli/big/guitar_electric.jpg,22029,stimuli/big/chair_wheel.jpg,22086,stimuli/big/wheel_barrow.jpg,1,a,63,22,1,0,1,0,0,15,15,15,A1,a,1,1.1113430000841618,2,2021_Oct_14_1316,simPEL-EEG_ses-3_part-6_label-assoc,2021.1.4,59.99638825976986,
2,Day3_assoc,0,1,17,17,nv,49,22042,stimuli/big/grill_large.jpg,-12021,stimuli/small/clover.jpg,-12090,stimuli/small/z_bicycle_repair.jpg,-12004,stimuli/small/bagel.jpg,1,a,63,28,1,0,1,0,0,16,16,16,A1,s,0,1.052741900086403,2,2021_Oct_14_1316,simPEL-EEG_ses-3_part-6_label-assoc,2021.1.4,59.99638825976986,
2,Day3_assoc,0,1,18,18,v,24,-11069,stimuli/small/pretzel.jpg,21069,stimuli/big/stand_music.jpg,21035,stimuli/big/drum_snare.jpg,21025,stimuli/big/case_guitar.jpg,1,a,62,16,1,0,1,0,0,17,17,17,A1,s,0,0.4422306001652032,2,2021_Oct_14_1316,simPEL-EEG_ses-3_part-6_label-assoc,2021.1.4,59.99638825976986,
2,Day3_assoc,0,1,19,19,nv,46,22015,stimuli/big/box_cabinet.jpg,-12020,stimuli/small/clipper_nail.jpg,-12082,stimuli/small/sushi.jpg,-12011,stimuli/small/candle.jpg,3,d,63,25,1,0,1,0,0,18,18,18,A1,s,0,2.7933834998402745,2,2021_Oct_14_1316,simPEL-EEG_ses-3_part-6_label-assoc,2021.1.4,59.99638825976986,
2,Day3_assoc,0,1,20,20,nv,71,-12071,stimuli/small/remote.jpg,22059,stimuli/big/playpen.jpg,22043,stimuli/big/guitar_electric.jpg,22016,stimuli/big/box_mail.jpg,1,a,63,19,1,0,1,0,0,19,19,19,A1,a,1,1.2609169001225382,2,2021_Oct_14_1316,simPEL-EEG_ses-3_part-6_label-assoc,2021.1.4,59.99638825976986,
2,Day3_assoc,0,1,21,21,v,13,21085,stimuli/big/wardrobe.jpg,-11049,stimuli/small/match.jpg,-11087,stimuli/small/tool_divider.jpg,-11066,stimuli/small/pizza_cutter.jpg,1,a,62,22,1,0,1,0,0,20,20,20,A1,s,0,1.686358599923551,2,2021_Oct_14_1316,simPEL-EEG_ses-3_part-6_label-assoc,2021.1.4,59.99638825976986,
2,Day3_assoc,0,1,22,22,v,28,-11023,stimuli/small/coffee_beans.jpg,21035,stimuli/big/drum_snare.jpg,21030,stimuli/big/couch.jpg,21079,stimuli/big/tractor.jpg,1,a,62,16,1,0,1,0,0,21,21,21,A1,d,0,1.5877650000620633,2,2021_Oct_14_1316,simPEL-EEG_ses-3_part-6_label-assoc,2021.1.4,59.99638825976986,
2,Day3_assoc,0,1,23,23,nv,47,22052,stimuli/big/ladder.jpg,-12004,stimuli/small/bagel.jpg,-12075,stimuli/small/screwdriver.jpg,-12010,stimuli/small/button.jpg,3,d,63,30,1,0,1,0,0,22,22,22,A1,s,0,2.943705999990925,2,2021_Oct_14_1316,simPEL-EEG_ses-3_part-6_label-assoc,2021.1.4,59.99638825976986,
2,Day3_assoc,0,1,24,24,nv,42,22045,stimuli/big/hamper.jpg,-12011,stimuli/small/candle.jpg,-12068,stimuli/small/plum.jpg,-12027,stimuli/small/crayon.jpg,3,d,63,29,1,0,1,0,0,23,23,23,A1,d,1,1.7725691001396626,2,2021_Oct_14_1316,simPEL-EEG_ses-3_part-6_label-assoc,2021.1.4,59.99638825976986,
2,Day3_assoc,0,1,25,25,v,8,21060,stimuli/big/refridgerator.jpg,-11061,stimuli/small/pen.jpg,-11005,stimuli/small/ball_base.jpg,-11083,stimuli/small/swabs_cotton.jpg,3,d,62,16,1,0,1,0,0,24,24,24,A1,d,1,2.9858997999690473,2,2021_Oct_14_1316,simPEL-EEG_ses-3_part-6_label-assoc,2021.1.4,59.99638825976986,
2,Day3_assoc,0,1,26,26,nv,70,-12029,stimuli/small/dart.jpg,22036,stimuli/big/fan.jpg,22012,stimuli/big/board_ironing.jpg,22004,stimuli/big/barrel.jpg,3,d,63,24,1,0,1,0,0,25,25,25,A1,d,1,1.7699142000637949,2,2021_Oct_14_1316,simPEL-EEG_ses-3_part-6_label-assoc,2021.1.4,59.99638825976986,
2,Day3_assoc,0,1,27,27,v,9,21054,stimuli/big/microwave.jpg,-11049,stimuli/small/match.jpg,-11017,stimuli/small/chip.jpg,-11028,stimuli/small/cupcake.jpg,3,d,62,16,1,0,1,0,0,26,26,26,A1,d,1,1.087426400044933,2,2021_Oct_14_1316,simPEL-EEG_ses-3_part-6_label-assoc,2021.1.4,59.99638825976986,
2,Day3_assoc,0,1,28,28,nv,59,-12055,stimuli/small/ornament.jpg,22086,stimuli/big/wheel_barrow.jpg,22016,stimuli/big/box_mail.jpg,22011,stimuli/big/bin_storage.jpg,2,s,63,29,1,0,1,0,0,27,27,27,A1,s,1,2.0121228001080453,2,2021_Oct_14_1316,simPEL-EEG_ses-3_part-6_label-assoc,2021.1.4,59.99638825976986,
2,Day3_assoc,0,1,29,29,nv,41,22008,stimuli/big/bike_exercise.jpg,-12085,stimuli/small/timer_kitchen.jpg,-12019,stimuli/small/clip_hair.jpg,-12010,stimuli/small/button.jpg,2,s,63,27,1,0,1,0,0,28,28,28,A1,s,1,1.9543512999080122,2,2021_Oct_14_1316,simPEL-EEG_ses-3_part-6_label-assoc,2021.1.4,59.99638825976986,
2,Day3_assoc,0,1,30,30,nv,58,-12050,stimuli/small/medal.jpg,22012,stimuli/big/board_ironing.jpg,22067,stimuli/big/sink_bathroom.jpg,22020,stimuli/big/can_garbage.jpg,1,a,63,24,1,0,1,0,0,29,29,29,A1,d,0,1.0101746001746505,2,2021_Oct_14_1316,simPEL-EEG_ses-3_part-6_label-assoc,2021.1.4,59.99638825976986,
2,Day3_assoc,0,1,31,31,v,23,-11080,stimuli/small/strainer.jpg,21051,stimuli/big/jug_water.jpg,21049,stimuli/big/house_dog.jpg,21070,stimuli/big/stereo.jpg,2,s,62,15,1,0,1,0,0,30,30,30,A1,s,1,1.0802782999817282,2,2021_Oct_14_1316,simPEL-EEG_ses-3_part-6_label-assoc,2021.1.4,59.99638825976986,
2,Day3_assoc,0,1,32,32,v,26,-11072,stimuli/small/ribbon.jpg,21079,stimuli/big/tractor.jpg,21022,stimuli/big/cannon.jpg,21025,stimuli/big/case_guitar.jpg,2,s,62,15,1,0,1,0,0,31,31,31,A1,d,0,2.3503695998806506,2,2021_Oct_14_1316,simPEL-EEG_ses-3_part-6_label-assoc,2021.1.4,59.99638825976986,
2,Day3_assoc,0,1,33,33,nv,68,-12078,stimuli/small/stapler.jpg,22053,stimuli/big/machine_washing.jpg,22084,stimuli/big/walker.jpg,22036,stimuli/big/fan.jpg,2,s,63,18,1,0,1,0,0,32,32,32,A1,d,0,2.4425250000786036,2,2021_Oct_14_1316,simPEL-EEG_ses-3_part-6_label-assoc,2021.1.4,59.99638825976986,
2,Day3_assoc,0,1,34,34,v,15,21056,stimuli/big/pane_window.jpg,-11017,stimuli/small/chip.jpg,-11087,stimuli/small/tool_divider.jpg,-11074,stimuli/small/screw.jpg,1,a,62,24,1,0,1,0,0,33,33,33,A1,a,1,0.8985993000678718,2,2021_Oct_14_1316,simPEL-EEG_ses-3_part-6_label-assoc,2021.1.4,59.99638825976986,
2,Day3_assoc,0,1,35,35,nv,44,22047,stimuli/big/hay.jpg,-12020,stimuli/small/clipper_nail.jpg,-12057,stimuli/small/pasta.jpg,-12068,stimuli/small/plum.jpg,2,s,63,21,1,0,1,0,0,34,34,34,A1,s,1,2.532695399830118,2,2021_Oct_14_1316,simPEL-EEG_ses-3_part-6_label-assoc,2021.1.4,59.99638825976986,
2,Day3_assoc,0,1,36,36,nv,52,22089,stimuli/big/z_motorcycle.jpg,-12053,stimuli/small/nest_bird.jpg,-12082,stimuli/small/sushi.jpg,-12030,stimuli/small/dogcollar_name_plate.jpg,2,s,63,24,1,0,1,0,0,35,35,35,A1,d,0,1.8286274999845773,2,2021_Oct_14_1316,simPEL-EEG_ses-3_part-6_label-assoc,2021.1.4,59.99638825976986,
2,Day3_assoc,0,1,37,37,v,29,-11065,stimuli/small/pine_cone.jpg,21066,stimuli/big/shirt_long_sleeve.jpg,21070,stimuli/big/stereo.jpg,21077,stimuli/big/television.jpg,2,s,62,20,1,0,1,0,0,36,36,36,A1,d,0,1.583351300098002,2,2021_Oct_14_1316,simPEL-EEG_ses-3_part-6_label-assoc,2021.1.4,59.99638825976986,
2,Day3_assoc,0,1,38,38,nv,45,22078,stimuli/big/toilet.jpg,-12085,stimuli/small/timer_kitchen.jpg,-12021,stimuli/small/clover.jpg,-12075,stimuli/small/screwdriver.jpg,1,a,63,19,1,0,1,0,0,37,37,37,A1,a,1,1.53071069996804,2,2021_Oct_14_1316,simPEL-EEG_ses-3_part-6_label-assoc,2021.1.4,59.99638825976986,
2,Day3_assoc,0,1,39,39,v,5,21038,stimuli/big/fork_pitch.jpg,-11088,stimuli/small/tweezers.jpg,-11028,stimuli/small/cupcake.jpg,-11058,stimuli/small/peach.jpg,3,d,62,20,1,0,1,0,0,38,38,38,A1,d,1,1.181562899844721,2,2021_Oct_14_1316,simPEL-EEG_ses-3_part-6_label-assoc,2021.1.4,59.99638825976986,
2,Day3_assoc,0,1,40,40,v,6,21055,stimuli/big/mower_lawn.jpg,-11061,stimuli/small/pen.jpg,-11038,stimuli/small/harmonica.jpg,-11042,stimuli/small/key.jpg,3,d,62,26,1,0,1,0,0,39,39,39,A1,d,1,1.212218799861148,2,2021_Oct_14_1316,simPEL-EEG_ses-3_part-6_label-assoc,2021.1.4,59.99638825976986,
2,Day3_assoc,0,1,41,41,v,25,-11018,stimuli/small/clip.jpg,21070,stimuli/big/stereo.jpg,21003,stimuli/big/ball_basket.jpg,21076,stimuli/big/tank.jpg,3,d,62,29,1,0,1,0,0,40,40,40,A1,s,0,1.553772300016135,2,2021_Oct_14_1316,simPEL-EEG_ses-3_part-6_label-assoc,2021.1.4,59.99638825976986,
2,Day3_assoc,0,1,42,42,nv,54,22064,stimuli/big/seat_baby.jpg,-12034,stimuli/small/earings.jpg,-12030,stimuli/small/dogcollar_name_plate.jpg,-12027,stimuli/small/crayon.jpg,1,a,63,29,1,0,1,0,0,41,41,41,A1,a,1,1.6776757999323308,2,2021_Oct_14_1316,simPEL-EEG_ses-3_part-6_label-assoc,2021.1.4,59.99638825976986,
2,Day3_assoc,0,1,43,43,v,18,21088,stimuli/big/z_car_airport.jpg,-11025,stimuli/small/cookie.jpg,-11052,stimuli/small/needle.jpg,-11042,stimuli/small/key.jpg,1,a,62,29,1,0,1,0,0,42,42,42,A1,a,1,1.5464439999777824,2,2021_Oct_14_1316,simPEL-EEG_ses-3_part-6_label-assoc,2021.1.4,59.99638825976986,
2,Day3_assoc,0,1,44,44,v,21,-11076,stimuli/small/shell.jpg,21076,stimuli/big/tank.jpg,21027,stimuli/big/chair_arm.jpg,21051,stimuli/big/jug_water.jpg,2,s,62,22,1,0,1,0,0,43,43,43,A1,d,0,2.172943599987775,2,2021_Oct_14_1316,simPEL-EEG_ses-3_part-6_label-assoc,2021.1.4,59.99638825976986,
2,Day3_assoc,0,1,45,45,v,1,21057,stimuli/big/piano.jpg,-11058,stimuli/small/peach.jpg,-11012,stimuli/small/card.jpg,-11087,stimuli/small/tool_divider.jpg,3,d,62,18,1,0,1,0,0,44,44,44,A1,s,0,1.3061202999670058,2,2021_Oct_14_1316,simPEL-EEG_ses-3_part-6_label-assoc,2021.1.4,59.99638825976986,
2,Day3_assoc,0,1,46,46,nv,39,22017,stimuli/big/bulldozer.jpg,-12064,stimuli/small/pin_clothes.jpg,-12085,stimuli/small/timer_kitchen.jpg,-12044,stimuli/small/leaf.jpg,3,d,63,19,1,0,1,0,0,45,45,45,A1,d,1,2.2272689000237733,2,2021_Oct_14_1316,simPEL-EEG_ses-3_part-6_label-assoc,2021.1.4,59.99638825976986,
2,Day3_assoc,0,1,47,47,nv,65,-12035,stimuli/small/eraser.jpg,22006,stimuli/big/bench_park.jpg,22059,stimuli/big/playpen.jpg,22011,stimuli/big/bin_storage.jpg,3,d,63,16,1,0,1,0,0,46,46,46,A1,d,1,1.2088997999671847,2,2021_Oct_14_1316,simPEL-EEG_ses-3_part-6_label-assoc,2021.1.4,59.99638825976986,
2,Day3_assoc,0,1,48,48,v,22,-11067,stimuli/small/plant_flower_rose.jpg,21035,stimuli/big/drum_snare.jpg,21041,stimuli/big/golf_clubs.jpg,21022,stimuli/big/cannon.jpg,2,s,62,30,1,0,1,0,0,47,47,47,A1,s,1,1.5967989000491798,2,2021_Oct_14_1316,simPEL-EEG_ses-3_part-6_label-assoc,2021.1.4,59.99638825976986,
2,Day3_assoc,0,1,49,49,nv,56,-12045,stimuli/small/lemon.jpg,22036,stimuli/big/fan.jpg,22020,stimuli/big/can_garbage.jpg,22044,stimuli/big/gurney.jpg,1,a,63,17,1,0,1,0,0,48,48,48,A1,d,0,1.3055759000126272,2,2021_Oct_14_1316,simPEL-EEG_ses-3_part-6_label-assoc,2021.1.4,59.99638825976986,
2,Day3_assoc,0,1,50,50,nv,37,22073,stimuli/big/suit.jpg,-12064,stimuli/small/pin_clothes.jpg,-12019,stimuli/small/clip_hair.jpg,-12090,stimuli/small/z_bicycle_repair.jpg,3,d,63,21,1,0,1,0,0,49,49,49,A1,d,1,1.2117753000929952,2,2021_Oct_14_1316,simPEL-EEG_ses-3_part-6_label-assoc,2021.1.4,59.99638825976986,
2,Day3_assoc,0,1,51,51,v,7,21074,stimuli/big/sword.jpg,-11088,stimuli/small/tweezers.jpg,-11012,stimuli/small/card.jpg,-11049,stimuli/small/match.jpg,2,s,62,19,1,0,1,0,0,50,50,50,A1,s,1,1.5349161000922322,2,2021_Oct_14_1316,simPEL-EEG_ses-3_part-6_label-assoc,2021.1.4,59.99638825976986,
2,Day3_assoc,0,1,52,52,v,19,-11079,stimuli/small/star_fish.jpg,21076,stimuli/big/tank.jpg,21049,stimuli/big/house_dog.jpg,21031,stimuli/big/counter_kitchen.jpg,3,d,62,27,1,0,1,0,0,51,51,51,A1,d,1,1.2452368999365717,2,2021_Oct_14_1316,simPEL-EEG_ses-3_part-6_label-assoc,2021.1.4,59.99638825976986,
2,Day3_assoc,0,1,53,53,nv,67,-12013,stimuli/small/carton_milk.jpg,22063,stimuli/big/scooter.jpg,22048,stimuli/big/hockeytable.jpg,22059,stimuli/big/playpen.jpg,2,s,63,22,1,0,1,0,0,52,52,52,A1,a,0,1.4624800998717546,2,2021_Oct_14_1316,simPEL-EEG_ses-3_part-6_label-assoc,2021.1.4,59.99638825976986,
2,Day3_assoc,0,1,54,54,nv,62,-12016,stimuli/small/chess_piece.jpg,22009,stimuli/big/bin_garbage.jpg,22084,stimuli/big/walker.jpg,22020,stimuli/big/can_garbage.jpg,3,d,63,23,1,0,1,0,0,53,53,53,A1,s,0,1.2952295001596212,2,2021_Oct_14_1316,simPEL-EEG_ses-3_part-6_label-assoc,2021.1.4,59.99638825976986,
2,Day3_assoc,0,1,55,55,v,32,-11073,stimuli/small/ring_diamond.jpg,21079,stimuli/big/tractor.jpg,21090,stimuli/big/z_tool_asphalt.jpg,21081,stimuli/big/tub_hot.jpg,1,a,62,16,1,0,1,0,0,54,54,54,A1,d,0,1.1646245000883937,2,2021_Oct_14_1316,simPEL-EEG_ses-3_part-6_label-assoc,2021.1.4,59.99638825976986,
2,Day3_assoc,0,1,56,56,nv,48,22046,stimuli/big/harp.jpg,-12068,stimuli/small/plum.jpg,-12034,stimuli/small/earings.jpg,-12082,stimuli/small/sushi.jpg,1,a,63,27,1,0,1,0,0,55,55,55,A1,d,0,1.9865377000533044,2,2021_Oct_14_1316,simPEL-EEG_ses-3_part-6_label-assoc,2021.1.4,59.99638825976986,
2,Day3_assoc,0,1,57,57,v,33,-11059,stimuli/small/pear.jpg,21027,stimuli/big/chair_arm.jpg,21031,stimuli/big/counter_kitchen.jpg,21066,stimuli/big/shirt_long_sleeve.jpg,3,d,62,17,1,0,1,0,0,56,56,56,A1,a,0,2.5271956000942737,2,2021_Oct_14_1316,simPEL-EEG_ses-3_part-6_label-assoc,2021.1.4,59.99638825976986,
2,Day3_assoc,0,1,58,58,v,36,-11039,stimuli/small/hole_puncher.jpg,21090,stimuli/big/z_tool_asphalt.jpg,21069,stimuli/big/stand_music.jpg,21041,stimuli/big/golf_clubs.jpg,1,a,62,20,1,0,1,0,0,57,57,57,A1,s,0,3.018045499920845,2,2021_Oct_14_1316,simPEL-EEG_ses-3_part-6_label-assoc,2021.1.4,59.99638825976986,
2,Day3_assoc,0,1,59,59,v,12,21080,stimuli/big/tub_bath.jpg,-11015,stimuli/small/cheese_swiss.jpg,-11061,stimuli/small/pen.jpg,-11025,stimuli/small/cookie.jpg,2,s,62,15,1,0,1,0,0,58,58,58,A1,a,0,1.5921015001367778,2,2021_Oct_14_1316,simPEL-EEG_ses-3_part-6_label-assoc,2021.1.4,59.99638825976986,
2,Day3_assoc,0,1,60,60,nv,69,-12033,stimuli/small/donut.jpg,22043,stimuli/big/guitar_electric.jpg,22063,stimuli/big/scooter.jpg,22006,stimuli/big/bench_park.jpg,3,d,63,22,1,0,1,0,0,59,59,59,A1,s,0,1.985566500108689,2,2021_Oct_14_1316,simPEL-EEG_ses-3_part-6_label-assoc,2021.1.4,59.99638825976986,
2,Day3_assoc,0,1,61,61,v,30,-11040,stimuli/small/ice_cream.jpg,21025,stimuli/big/case_guitar.jpg,21090,stimuli/big/z_tool_asphalt.jpg,21030,stimuli/big/couch.jpg,1,a,62,18,1,0,1,0,0,60,60,60,A1,d,0,1.0378430001437664,2,2021_Oct_14_1316,simPEL-EEG_ses-3_part-6_label-assoc,2021.1.4,59.99638825976986,
2,Day3_assoc,0,1,62,62,nv,64,-12089,stimuli/small/watch_stop.jpg,22067,stimuli/big/sink_bathroom.jpg,22004,stimuli/big/barrel.jpg,22084,stimuli/big/walker.jpg,1,a,63,15,1,0,1,0,0,61,61,61,A1,s,0,1.2196836001239717,2,2021_Oct_14_1316,simPEL-EEG_ses-3_part-6_label-assoc,2021.1.4,59.99638825976986,
2,Day3_assoc,0,1,63,63,nv,43,22065,stimuli/big/shelf.jpg,-12010,stimuli/small/button.jpg,-12064,stimuli/small/pin_clothes.jpg,-12021,stimuli/small/clover.jpg,2,s,63,19,1,0,1,0,0,62,62,62,A1,a,0,1.1431271999608725,2,2021_Oct_14_1316,simPEL-EEG_ses-3_part-6_label-assoc,2021.1.4,59.99638825976986,
2,Day3_assoc,0,1,64,64,nv,50,22039,stimuli/big/gazebo.jpg,-12053,stimuli/small/nest_bird.jpg,-12034,stimuli/small/earings.jpg,-12020,stimuli/small/clipper_nail.jpg,3,d,63,30,1,0,1,0,0,63,63,63,A1,s,0,1.3712088998872787,2,2021_Oct_14_1316,simPEL-EEG_ses-3_part-6_label-assoc,2021.1.4,59.99638825976986,
2,Day3_assoc,0,1,65,65,v,27,-11041,stimuli/small/ipod.jpg,21003,stimuli/big/ball_basket.jpg,21066,stimuli/big/shirt_long_sleeve.jpg,21051,stimuli/big/jug_water.jpg,3,d,62,15,1,0,1,0,0,64,64,64,A1,s,0,1.0733175999484956,2,2021_Oct_14_1316,simPEL-EEG_ses-3_part-6_label-assoc,2021.1.4,59.99638825976986,
2,Day3_assoc,0,1,66,66,v,20,-11014,stimuli/small/catears.jpg,21069,stimuli/big/stand_music.jpg,21022,stimuli/big/cannon.jpg,21081,stimuli/big/tub_hot.jpg,3,d,62,22,1,0,1,0,0,65,65,65,A1,d,1,0.898755099857226,2,2021_Oct_14_1316,simPEL-EEG_ses-3_part-6_label-assoc,2021.1.4,59.99638825976986,
2,Day3_assoc,0,1,67,67,v,17,21034,stimuli/big/door.jpg,-11058,stimuli/small/peach.jpg,-11066,stimuli/small/pizza_cutter.jpg,-11074,stimuli/small/screw.jpg,2,s,62,17,1,0,1,0,0,66,66,66,A1,s,1,1.7113906000740826,2,2021_Oct_14_1316,simPEL-EEG_ses-3_part-6_label-assoc,2021.1.4,59.99638825976986,
2,Day3_assoc,0,1,68,68,nv,55,-12026,stimuli/small/cookie_cutter.jpg,22029,stimuli/big/chair_wheel.jpg,22016,stimuli/big/box_mail.jpg,22063,stimuli/big/scooter.jpg,3,d,63,30,1,0,1,0,0,67,67,67,A1,s,0,0.8915480000432581,2,2021_Oct_14_1316,simPEL-EEG_ses-3_part-6_label-assoc,2021.1.4,59.99638825976986,
2,Day3_assoc,0,1,69,69,nv,66,-12008,stimuli/small/boxcutter.jpg,22053,stimuli/big/machine_washing.jpg,22004,stimuli/big/barrel.jpg,22009,stimuli/big/bin_garbage.jpg,3,d,63,19,1,0,1,0,0,68,68,68,A1,d,1,1.6229076001327485,2,2021_Oct_14_1316,simPEL-EEG_ses-3_part-6_label-assoc,2021.1.4,59.99638825976986,
2,Day3_assoc,0,1,70,70,v,31,-11036,stimuli/small/feather.jpg,21031,stimuli/big/counter_kitchen.jpg,21003,stimuli/big/ball_basket.jpg,21077,stimuli/big/television.jpg,2,s,62,30,1,0,1,0,0,69,69,69,A1,s,1,1.3789093000814319,2,2021_Oct_14_1316,simPEL-EEG_ses-3_part-6_label-assoc,2021.1.4,59.99638825976986,
2,Day3_assoc,0,1,71,71,v,10,21058,stimuli/big/pilar.jpg,-11015,stimuli/small/cheese_swiss.jpg,-11038,stimuli/small/harmonica.jpg,-11005,stimuli/small/ball_base.jpg,2,s,62,26,1,0,1,0,0,70,70,70,A1,s,1,0.9616415000054985,2,2021_Oct_14_1316,simPEL-EEG_ses-3_part-6_label-assoc,2021.1.4,59.99638825976986,
2,Day3_assoc,0,1,72,72,nv,51,22061,stimuli/big/saddle_horse.jpg,-12075,stimuli/small/screwdriver.jpg,-12044,stimuli/small/leaf.jpg,-12090,stimuli/small/z_bicycle_repair.jpg,1,a,63,18,1,0,1,0,0,71,71,71,A1,d,0,1.7096418999135494,2,2021_Oct_14_1316,simPEL-EEG_ses-3_part-6_label-assoc,2021.1.4,59.99638825976986,
